<?xml version="1.0" encoding="UTF-8" standalone="no"?>
<!-- Created with Inkscape (http://www.inkscape.org/) -->

<svg
   xmlns:dc="http://purl.org/dc/elements/1.1/"
   xmlns:cc="http://creativecommons.org/ns#"
   xmlns:rdf="http://www.w3.org/1999/02/22-rdf-syntax-ns#"
   xmlns:svg="http://www.w3.org/2000/svg"
   xmlns="http://www.w3.org/2000/svg"
   xmlns:sodipodi="http://sodipodi.sourceforge.net/DTD/sodipodi-0.dtd"
   xmlns:inkscape="http://www.inkscape.org/namespaces/inkscape"
   sodipodi:docname="logo-black.svg"
   inkscape:version="0.48.1 r9760"
   version="1.1"
   id="svg3110"
   height="194.88188"
   width="124.01575">
  <defs
     id="defs3112" />
  <sodipodi:namedview
     id="base"
     pagecolor="#ffffff"
     bordercolor="#666666"
     borderopacity="1.0"
     inkscape:pageopacity="0.0"
     inkscape:pageshadow="2"
     inkscape:zoom="2.5654624"
     inkscape:cx="64.962468"
     inkscape:cy="98.443124"
     inkscape:document-units="mm"
     inkscape:current-layer="layer1"
     showgrid="false"
     fit-margin-top="0"
     fit-margin-left="0"
     fit-margin-right="0"
     fit-margin-bottom="0"
     inkscape:window-width="1280"
     inkscape:window-height="730"
     inkscape:window-x="0"
     inkscape:window-y="22"
     inkscape:window-maximized="1"
     showguides="true"
     inkscape:guide-bbox="true"
     inkscape:object-nodes="true"
     units="mm"
     inkscape:snap-nodes="true"
     inkscape:object-paths="true"
     inkscape:snap-bbox="true"
     inkscape:bbox-paths="true"
     inkscape:snap-page="true" />
  <metadata
     id="metadata3115">
    <rdf:RDF>
      <cc:Work
         rdf:about="">
        <dc:format>image/svg+xml</dc:format>
        <dc:type
           rdf:resource="http://purl.org/dc/dcmitype/StillImage" />
        <dc:title />
      </cc:Work>
    </rdf:RDF>
  </metadata>
  <g
     inkscape:label="Layer 1"
     inkscape:groupmode="layer"
     id="layer1"
     transform="translate(-41.12358,-723.19416)">
    <path
       style="fill:#000000;stroke:none"
       d="m 51.436328,733.42005 6.755585,0 0,31.95816 12.852262,0 0,6.75554 -19.607847,0 0,-0.33465 c 0,-12.79302 0,-25.58603 0,-38.37905 z"
       id="path25017"
       inkscape:connector-curvature="0"
       sodipodi:nodetypes="cccccccc" />
    <path
       style="fill:#000000;stroke:none"
       d="m 74.756608,733.42005 6.766008,0 0,38.7137 -6.766008,0 0,-38.7137 z"
       id="path25015"
       inkscape:connector-curvature="0" />
    <path
       style="fill:#000000;stroke:none"
       d="m 85.232477,733.42173 0,31.93788 0,6.7773 6.771174,0 2.193737,0 0,-0.0119 c 5.894222,0 12.255522,-2.72534 12.255522,-11.50181 0,-5.48041 -2.09046,-8.57193 -5.31277,-10.11693 1.96491,-1.57369 3.2661,-3.91341 3.2661,-7.24301 0,-6.3919 -3.91188,-9.84118 -9.411247,-9.84118 -3.162948,0 -6.919781,0 -9.762516,0 z m 6.771174,6.7773 0.257365,0 1.495173,0 c 1.743063,0.0552 3.946281,0.48271 3.946281,3.06388 0,3.4415 -3.8523,3.16805 -5.56401,3.16805 -0.04358,0 -0.08797,0.0106 -0.134809,0.0184 z m 0,15.76672 2.163099,0 c 0.05206,0.0119 0.101326,0.0245 0.147066,0.0245 1.519268,0 5.435324,0.17488 5.435324,4.63259 0,4.21739 -3.840138,4.73676 -5.551752,4.73676 l -2.193737,0 z"
       id="path25013"
       inkscape:connector-curvature="0"
       sodipodi:nodetypes="ccccccscscccccssccccssscc" />
    <path
       style="fill:#000000;stroke:none"
       d="m 109.03883,733.42173 c 0,12.90301 0,25.80603 0,38.70905 l 6.75278,0 0,-16.17728 c 1.61417,0.0393 3.31829,-0.0597 4.90221,0.0119 l 5.23311,16.16503 7.10819,0 -5.66818,-17.53152 c 3.20334,-1.54739 5.59465,-4.57251 5.59465,-9.94536 0,-8.7764 -5.37513,-11.23217 -12.13909,-11.23217 -3.9279,0 -7.85579,0 -11.78367,0 z m 6.75278,6.7773 5.03089,0 c 1.51908,0 5.43532,-0.003 5.43532,4.45487 0,4.21751 -3.85242,4.55905 -5.564,4.55905 l 0,-0.0245 -4.90221,0 z"
       id="path25011"
       inkscape:connector-curvature="0"
       sodipodi:nodetypes="ccccccccssccsscccc" />
    <path
       style="fill:#000000;stroke:none"
       d="m 135.30559,733.42005 c 6.53595,0 13.07191,0 19.60785,0 l 0,6.75553 -12.84185,0 0,9.01443 7.43532,0 0,6.76597 -7.43532,0 0,9.42223 12.84185,0 0,6.75554 c -6.53594,0 -13.0719,0 -19.60785,0 0,-12.90457 0,-25.80913 0,-38.7137 z"
       id="path25009"
       inkscape:connector-curvature="0"
       sodipodi:nodetypes="ccccccccccccc" />
    <path
       style="fill:#000000;stroke:none"
       d="m 62.312155,775.67887 c 8.77647,0 11.315066,6.36195 11.315066,12.2562 l -6.755586,0 c 0,-1.7116 -0.342121,-5.55297 -4.55948,-5.55297 -4.45764,0 -4.454881,3.91884 -4.454881,5.43791 l 0,15.76992 c 0,1.51918 -0.0029,5.4379 4.454881,5.4379 4.217359,0 4.55948,-3.84131 4.55948,-5.5529 l 0,-1.92419 -4.465357,0 0,-6.75554 11.220943,0 0,2.26925 0,6.41048 c 0,5.89419 -2.538596,12.26667 -11.315066,12.26667 -8.776418,0 -11.231338,-5.3876 -11.231338,-12.15167 0,-0.10746 0.0071,-0.20169 0.01045,-0.30323 l 0,-15.16339 c -0.0034,-0.1015 -0.01045,-0.19568 -0.01045,-0.3033 0,-6.76398 2.45492,-12.14114 11.231338,-12.14114 z"
       id="path25001"
       inkscape:connector-curvature="0" />
    <path
       style="fill:#000000;stroke:none"
       d="m 115.80386,775.67875 c -8.77644,0 -11.2497,5.37515 -11.23218,12.13909 0.0234,9.03673 0.0184,18.18268 0.0184,27.25627 l 6.75892,0 0,-9.41224 9.01394,0 0,9.41224 6.76503,0 0,-27.17048 c 0,-5.88538 -2.56317,-12.22488 -11.32409,-12.22488 z m 0,6.70376 c 4.21734,0 4.55905,3.84018 4.55905,5.55176 l 0,10.96256 -9.01393,0 0,-11.05447 c 0,0 0,-0.0163 0,-0.0245 0,-1.51906 -0.003,-5.43533 4.45488,-5.43533 z"
       id="path24999"
       inkscape:connector-curvature="0"
       sodipodi:nodetypes="ssccccccsssssccsss" />
    <path
       style="fill:#000000;stroke:none"
       d="m 77.235753,776.34667 c 0,12.90915 0,25.8183 0,38.72744 l 6.765045,0 0,-16.18954 c 1.606302,-0.0148 3.346452,0.0119 4.902206,0.0119 l 5.233106,16.16502 7.1082,0 -5.668173,-17.53765 c 3.203322,-1.54733 5.594633,-4.57257 5.594633,-9.94535 0,-8.77644 -5.37507,-11.23218 -12.139083,-11.23218 z m 6.765045,6.77731 5.030889,0 c 1.519108,0 5.435322,-0.003 5.435322,4.45488 0,4.21736 -3.852424,4.55905 -5.564005,4.55905 l 0,-0.0184 -4.902206,0 z"
       id="path24997"
       inkscape:connector-curvature="0"
       sodipodi:nodetypes="ccccccccssccsscccc" />
    <path
       style="fill:#000000;stroke:none"
       d="m 130.9333,776.34667 c 0,12.90915 0,25.8183 0,38.72744 l 6.75892,0 0,-16.18954 c 1.61272,-0.015 3.34844,0.0119 4.91447,0.0119 5.89411,-10e-5 12.25551,-2.54154 12.25551,-11.31798 0,-8.77644 -5.38124,-11.23218 -12.14521,-11.23218 -3.9279,0 -7.85579,0 -11.78369,0 z m 6.75892,6.77731 5.02477,0 c 1.51908,0 5.44144,-0.003 5.44144,4.45488 0,4.21736 -3.84017,4.55905 -5.55174,4.55905 l 0,-0.0184 -4.91447,0 z"
       id="path24995"
       inkscape:connector-curvature="0"
       sodipodi:nodetypes="ccccsssccsscccc" />
    <path
       style="fill:#000000;stroke:none"
       d="m 99.070335,817.93766 c 8.776445,0 11.325475,6.36206 11.325475,12.2562 l -6.76603,0 c 0,-1.7116 -0.3421,-5.55293 -4.559445,-5.55293 -4.457723,0 -4.454913,3.9188 -4.454913,5.43789 l 0,15.78042 c 0,1.51906 -0.0029,5.43791 4.454913,5.43791 4.217345,0 4.559445,-3.8518 4.559445,-5.56338 l 0,-2.67716 6.76603,0 0,2.67716 c 0,5.89414 -2.54903,12.26662 -11.325475,12.26662 -8.776449,0 -11.178172,-5.37739 -11.231371,-12.14115 -0.04101,-5.21494 0.18416,-10.57477 0,-15.78042 0,-6.76397 2.454922,-12.14116 11.231371,-12.14116 z"
       id="path24987"
       inkscape:connector-curvature="0"
       sodipodi:nodetypes="sccsssssccssscs" />
    <path
       style="fill:#000000;stroke:none"
       d="m 124.90037,817.93766 c 10.83595,0 11.31505,12.26668 11.31505,12.26668 l -6.75556,0 c 0,-2.83208 -1.25087,-5.56341 -4.55949,-5.56341 -3.24916,0 -4.45491,2.29048 -4.45491,5.43789 0,3.62856 3.89545,3.76459 7.51899,5.3072 3.62354,1.54261 8.25097,4.48716 8.25097,10.34775 0,4.31009 -0.4791,12.26662 -11.31505,12.26662 -11.23679,0 -11.2418,-12.14115 -11.2418,-12.14115 l 6.78689,0 c 0,0 -0.003,5.43791 4.45491,5.43791 4.21736,0 4.55949,-1.99105 4.55949,-5.56338 0,-3.76391 -5.89597,-4.53346 -8.92027,-5.93988 -3.02429,-1.40643 -6.88102,-3.11595 -6.88102,-9.71507 0,-3.96835 0.005,-12.14116 11.2418,-12.14116 z"
       id="path24985"
       inkscape:connector-curvature="0"
       sodipodi:nodetypes="sccsszssccsszss" />
    <path
       style="fill:#000000;stroke:none"
       d="m 51.091266,818.60692 6.766008,0 0,15.7386 9.014361,0 0,-15.7386 6.755586,0 0,38.72418 -6.755586,0 0,-16.21962 -9.014361,0 0,16.21962 -6.766008,0 0,-38.72418 z"
       id="path24983"
       inkscape:connector-curvature="0" />
    <path
       style="fill:#000000;stroke:none"
       d="m 77.360525,818.60692 6.755558,0 0,38.72418 -6.755558,0 0,-38.72418 z"
       id="rect50494"
       inkscape:connector-curvature="0" />
    <path
       style="fill:#000000;stroke:none"
       d="m 73.627221,794.7952 0,20.27891 -3.792237,0 -0.926548,-10.45789 z"
       id="path25029"
       inkscape:connector-curvature="0"
       sodipodi:nodetypes="ccccc" />
  </g>
  <g
     inkscape:groupmode="layer"
     id="layer2"
     inkscape:label="Handles"
     style="display:inline"
     transform="translate(0,-576.54576)" />
  <g
     inkscape:groupmode="layer"
     id="layer3"
     inkscape:label="Points"
     transform="translate(0,-576.54576)" />
</svg>
