<?xml version="1.0" encoding="UTF-8" standalone="no"?>
<!-- Created with Inkscape (http://www.inkscape.org/) -->

<svg
   xmlns:dc="http://purl.org/dc/elements/1.1/"
   xmlns:cc="http://creativecommons.org/ns#"
   xmlns:rdf="http://www.w3.org/1999/02/22-rdf-syntax-ns#"
   xmlns:svg="http://www.w3.org/2000/svg"
   xmlns="http://www.w3.org/2000/svg"
   xmlns:xlink="http://www.w3.org/1999/xlink"
   xmlns:sodipodi="http://sodipodi.sourceforge.net/DTD/sodipodi-0.dtd"
   xmlns:inkscape="http://www.inkscape.org/namespaces/inkscape"
   width="1488.189"
   height="1052.3622"
   id="svg47627"
   version="1.1"
   inkscape:version="0.48.3.1 r9886"
   sodipodi:docname="diagram_v2-text-plotter.svg"
   style="display:inline">
  <sodipodi:namedview
     id="base"
     pagecolor="#ffffff"
     bordercolor="#666666"
     borderopacity="1.0"
     inkscape:pageopacity="0.0"
     inkscape:pageshadow="2"
     inkscape:zoom="0.53549642"
     inkscape:cx="662.42334"
     inkscape:cy="752.92818"
     inkscape:document-units="cm"
     inkscape:current-layer="layer3"
     showgrid="false"
     inkscape:window-width="1280"
     inkscape:window-height="726"
     inkscape:window-x="0"
     inkscape:window-y="25"
     inkscape:window-maximized="1"
     inkscape:snap-bbox="true"
     inkscape:bbox-paths="false"
     inkscape:bbox-nodes="true"
     inkscape:snap-bbox-edge-midpoints="true"
     inkscape:snap-bbox-midpoints="true"
     inkscape:object-paths="true"
     showguides="true"
     inkscape:guide-bbox="true"
     inkscape:snap-global="true" />
  <defs
     id="defs47629">
    <linearGradient
       inkscape:collect="always"
       id="linearGradient24124">
      <stop
         style="stop-color:#786721;stop-opacity:1;"
         offset="0"
         id="stop24126" />
      <stop
         style="stop-color:#786721;stop-opacity:0;"
         offset="1"
         id="stop24128" />
    </linearGradient>
    <inkscape:path-effect
       effect="spiro"
       id="path-effect106254"
       is_visible="true" />
    <inkscape:path-effect
       effect="spiro"
       id="path-effect106250"
       is_visible="true" />
    <inkscape:path-effect
       effect="spiro"
       id="path-effect106246"
       is_visible="true" />
    <inkscape:path-effect
       effect="spiro"
       id="path-effect106242"
       is_visible="true" />
    <inkscape:path-effect
       is_visible="true"
       id="path-effect92718"
       effect="spiro" />
    <inkscape:path-effect
       is_visible="true"
       id="path-effect92714"
       effect="spiro" />
    <inkscape:path-effect
       is_visible="true"
       id="path-effect92710"
       effect="spiro" />
    <inkscape:path-effect
       is_visible="true"
       id="path-effect89683"
       effect="spiro" />
    <inkscape:path-effect
       effect="spiro"
       id="path-effect89679"
       is_visible="true" />
    <inkscape:path-effect
       effect="spiro"
       id="path-effect48473"
       is_visible="true" />
    <inkscape:path-effect
       effect="spiro"
       id="path-effect37002"
       is_visible="true" />
    <inkscape:path-effect
       effect="spiro"
       id="path-effect36998"
       is_visible="true" />
    <inkscape:path-effect
       effect="spiro"
       id="path-effect23519"
       is_visible="true" />
    <inkscape:path-effect
       effect="spiro"
       id="path-effect19863"
       is_visible="true" />
    <inkscape:path-effect
       is_visible="true"
       id="path-effect16867"
       effect="spiro" />
    <inkscape:path-effect
       effect="spiro"
       id="path-effect16865"
       is_visible="true" />
    <inkscape:path-effect
       effect="spiro"
       id="path-effect16863"
       is_visible="true" />
    <inkscape:path-effect
       is_visible="true"
       id="path-effect16861"
       effect="spiro" />
    <inkscape:path-effect
       is_visible="true"
       id="path-effect16859"
       effect="spiro" />
    <inkscape:path-effect
       effect="spiro"
       id="path-effect16857"
       is_visible="true" />
    <inkscape:path-effect
       effect="spiro"
       id="path-effect16855"
       is_visible="true" />
    <inkscape:path-effect
       is_visible="true"
       id="path-effect16853"
       effect="spiro" />
    <inkscape:path-effect
       is_visible="true"
       id="path-effect16851"
       effect="spiro" />
    <inkscape:path-effect
       effect="spiro"
       id="path-effect16849"
       is_visible="true" />
    <inkscape:path-effect
       effect="spiro"
       id="path-effect16847"
       is_visible="true" />
    <inkscape:path-effect
       is_visible="true"
       id="path-effect16845"
       effect="spiro" />
    <inkscape:path-effect
       is_visible="true"
       id="path-effect16843"
       effect="spiro" />
    <inkscape:path-effect
       effect="spiro"
       id="path-effect16841"
       is_visible="true" />
    <inkscape:path-effect
       effect="spiro"
       id="path-effect16839"
       is_visible="true" />
    <inkscape:path-effect
       is_visible="true"
       id="path-effect16837"
       effect="spiro" />
    <inkscape:path-effect
       is_visible="true"
       id="path-effect16835"
       effect="spiro" />
    <inkscape:path-effect
       effect="spiro"
       id="path-effect16833"
       is_visible="true" />
    <inkscape:path-effect
       is_visible="true"
       id="path-effect16795"
       effect="spiro" />
    <inkscape:path-effect
       effect="spiro"
       id="path-effect16793"
       is_visible="true" />
    <inkscape:path-effect
       effect="spiro"
       id="path-effect16791"
       is_visible="true" />
    <inkscape:path-effect
       is_visible="true"
       id="path-effect16789"
       effect="spiro" />
    <inkscape:path-effect
       is_visible="true"
       id="path-effect16787"
       effect="spiro" />
    <inkscape:path-effect
       effect="spiro"
       id="path-effect16785"
       is_visible="true" />
    <inkscape:path-effect
       effect="spiro"
       id="path-effect16783"
       is_visible="true" />
    <inkscape:path-effect
       is_visible="true"
       id="path-effect16781"
       effect="spiro" />
    <inkscape:path-effect
       is_visible="true"
       id="path-effect16779"
       effect="spiro" />
    <inkscape:path-effect
       effect="spiro"
       id="path-effect16777"
       is_visible="true" />
    <inkscape:path-effect
       effect="spiro"
       id="path-effect16775"
       is_visible="true" />
    <inkscape:path-effect
       is_visible="true"
       id="path-effect16773"
       effect="spiro" />
    <inkscape:path-effect
       is_visible="true"
       id="path-effect16771"
       effect="spiro" />
    <inkscape:path-effect
       effect="spiro"
       id="path-effect16769"
       is_visible="true" />
    <inkscape:path-effect
       effect="spiro"
       id="path-effect16767"
       is_visible="true" />
    <inkscape:path-effect
       is_visible="true"
       id="path-effect16765"
       effect="spiro" />
    <inkscape:path-effect
       is_visible="true"
       id="path-effect16763"
       effect="spiro" />
    <inkscape:path-effect
       effect="spiro"
       id="path-effect16761"
       is_visible="true" />
    <inkscape:path-effect
       effect="spiro"
       id="path-effect16759"
       is_visible="true" />
    <inkscape:path-effect
       is_visible="true"
       id="path-effect16757"
       effect="spiro" />
    <inkscape:path-effect
       is_visible="true"
       id="path-effect16755"
       effect="spiro" />
    <inkscape:path-effect
       effect="spiro"
       id="path-effect16753"
       is_visible="true" />
    <inkscape:path-effect
       effect="spiro"
       id="path-effect16751"
       is_visible="true" />
    <inkscape:path-effect
       is_visible="true"
       id="path-effect16749"
       effect="spiro" />
    <inkscape:path-effect
       is_visible="true"
       id="path-effect16747"
       effect="spiro" />
    <inkscape:path-effect
       effect="spiro"
       id="path-effect16745"
       is_visible="true" />
    <inkscape:path-effect
       effect="spiro"
       id="path-effect16743"
       is_visible="true" />
    <inkscape:path-effect
       is_visible="true"
       id="path-effect16741"
       effect="spiro" />
    <inkscape:path-effect
       is_visible="true"
       id="path-effect16683"
       effect="spiro" />
    <inkscape:path-effect
       effect="spiro"
       id="path-effect16681"
       is_visible="true" />
    <inkscape:path-effect
       effect="spiro"
       id="path-effect16675"
       is_visible="true" />
    <inkscape:path-effect
       is_visible="true"
       id="path-effect16673"
       effect="spiro" />
    <inkscape:path-effect
       is_visible="true"
       id="path-effect16667"
       effect="spiro" />
    <inkscape:path-effect
       effect="spiro"
       id="path-effect16665"
       is_visible="true" />
    <inkscape:path-effect
       effect="spiro"
       id="path-effect16659"
       is_visible="true" />
    <inkscape:path-effect
       is_visible="true"
       id="path-effect16657"
       effect="spiro" />
    <inkscape:path-effect
       is_visible="true"
       id="path-effect16651"
       effect="spiro" />
    <inkscape:path-effect
       effect="spiro"
       id="path-effect16649"
       is_visible="true" />
    <inkscape:path-effect
       effect="spiro"
       id="path-effect16643"
       is_visible="true" />
    <inkscape:path-effect
       is_visible="true"
       id="path-effect16641"
       effect="spiro" />
    <inkscape:path-effect
       is_visible="true"
       id="path-effect16635"
       effect="spiro" />
    <inkscape:path-effect
       effect="spiro"
       id="path-effect16633"
       is_visible="true" />
    <inkscape:path-effect
       effect="spiro"
       id="path-effect16627"
       is_visible="true" />
    <inkscape:path-effect
       is_visible="true"
       id="path-effect16625"
       effect="spiro" />
    <inkscape:path-effect
       is_visible="true"
       id="path-effect16619"
       effect="spiro" />
    <inkscape:path-effect
       effect="spiro"
       id="path-effect16617"
       is_visible="true" />
    <inkscape:path-effect
       effect="spiro"
       id="path-effect16611"
       is_visible="true" />
    <inkscape:path-effect
       is_visible="true"
       id="path-effect16609"
       effect="spiro" />
    <inkscape:path-effect
       is_visible="true"
       id="path-effect16603"
       effect="spiro" />
    <inkscape:path-effect
       effect="spiro"
       id="path-effect16601"
       is_visible="true" />
    <inkscape:path-effect
       effect="spiro"
       id="path-effect16595"
       is_visible="true" />
    <inkscape:path-effect
       is_visible="true"
       id="path-effect16593"
       effect="spiro" />
    <inkscape:path-effect
       is_visible="true"
       id="path-effect16587"
       effect="spiro" />
    <inkscape:path-effect
       effect="spiro"
       id="path-effect16585"
       is_visible="true" />
    <inkscape:path-effect
       effect="spiro"
       id="path-effect16579"
       is_visible="true" />
    <inkscape:path-effect
       is_visible="true"
       id="path-effect16577"
       effect="spiro" />
    <inkscape:path-effect
       is_visible="true"
       id="path-effect16571"
       effect="spiro" />
    <inkscape:path-effect
       effect="spiro"
       id="path-effect16569"
       is_visible="true" />
    <inkscape:path-effect
       effect="spiro"
       id="path-effect16563"
       is_visible="true" />
    <inkscape:path-effect
       is_visible="true"
       id="path-effect16561"
       effect="spiro" />
    <inkscape:path-effect
       is_visible="true"
       id="path-effect16555"
       effect="spiro" />
    <inkscape:path-effect
       effect="spiro"
       id="path-effect16553"
       is_visible="true" />
    <inkscape:path-effect
       effect="spiro"
       id="path-effect16547"
       is_visible="true" />
    <inkscape:path-effect
       is_visible="true"
       id="path-effect16545"
       effect="spiro" />
    <inkscape:path-effect
       is_visible="true"
       id="path-effect16539"
       effect="spiro" />
    <inkscape:path-effect
       effect="spiro"
       id="path-effect16537"
       is_visible="true" />
    <inkscape:path-effect
       effect="spiro"
       id="path-effect16531"
       is_visible="true" />
    <inkscape:path-effect
       is_visible="true"
       id="path-effect16529"
       effect="spiro" />
    <inkscape:path-effect
       is_visible="true"
       id="path-effect16523"
       effect="spiro" />
    <inkscape:path-effect
       effect="spiro"
       id="path-effect16521"
       is_visible="true" />
    <inkscape:path-effect
       effect="spiro"
       id="path-effect16515"
       is_visible="true" />
    <inkscape:path-effect
       is_visible="true"
       id="path-effect16513"
       effect="spiro" />
    <inkscape:path-effect
       is_visible="true"
       id="path-effect16507"
       effect="spiro" />
    <inkscape:path-effect
       effect="spiro"
       id="path-effect16505"
       is_visible="true" />
    <inkscape:path-effect
       effect="spiro"
       id="path-effect16499"
       is_visible="true" />
    <inkscape:path-effect
       is_visible="true"
       id="path-effect16497"
       effect="spiro" />
    <inkscape:path-effect
       is_visible="true"
       id="path-effect16491"
       effect="spiro" />
    <inkscape:path-effect
       effect="spiro"
       id="path-effect16489"
       is_visible="true" />
    <inkscape:path-effect
       effect="spiro"
       id="path-effect16483"
       is_visible="true" />
    <inkscape:path-effect
       is_visible="true"
       id="path-effect16481"
       effect="spiro" />
    <inkscape:path-effect
       is_visible="true"
       id="path-effect16475"
       effect="spiro" />
    <inkscape:path-effect
       effect="spiro"
       id="path-effect16473"
       is_visible="true" />
    <inkscape:path-effect
       effect="spiro"
       id="path-effect16467"
       is_visible="true" />
    <inkscape:path-effect
       is_visible="true"
       id="path-effect16465"
       effect="spiro" />
    <inkscape:path-effect
       is_visible="true"
       id="path-effect16459"
       effect="spiro" />
    <inkscape:path-effect
       effect="spiro"
       id="path-effect16457"
       is_visible="true" />
    <inkscape:path-effect
       effect="spiro"
       id="path-effect16451"
       is_visible="true" />
    <inkscape:path-effect
       is_visible="true"
       id="path-effect16449"
       effect="spiro" />
    <inkscape:path-effect
       is_visible="true"
       id="path-effect16443"
       effect="spiro" />
    <inkscape:path-effect
       effect="spiro"
       id="path-effect16441"
       is_visible="true" />
    <inkscape:path-effect
       effect="spiro"
       id="path-effect16435"
       is_visible="true" />
    <inkscape:path-effect
       is_visible="true"
       id="path-effect16433"
       effect="spiro" />
    <inkscape:path-effect
       is_visible="true"
       id="path-effect16427"
       effect="spiro" />
    <inkscape:path-effect
       effect="spiro"
       id="path-effect16425"
       is_visible="true" />
    <inkscape:path-effect
       effect="spiro"
       id="path-effect16419"
       is_visible="true" />
    <inkscape:path-effect
       is_visible="true"
       id="path-effect16417"
       effect="spiro" />
    <inkscape:path-effect
       is_visible="true"
       id="path-effect16411"
       effect="spiro" />
    <inkscape:path-effect
       effect="spiro"
       id="path-effect16409"
       is_visible="true" />
    <inkscape:path-effect
       effect="spiro"
       id="path-effect16403"
       is_visible="true" />
    <inkscape:path-effect
       is_visible="true"
       id="path-effect16401"
       effect="spiro" />
    <inkscape:path-effect
       is_visible="true"
       id="path-effect16395"
       effect="spiro" />
    <inkscape:path-effect
       effect="spiro"
       id="path-effect16393"
       is_visible="true" />
    <inkscape:path-effect
       effect="spiro"
       id="path-effect16387"
       is_visible="true" />
    <inkscape:path-effect
       is_visible="true"
       id="path-effect16385"
       effect="spiro" />
    <inkscape:path-effect
       is_visible="true"
       id="path-effect16379"
       effect="spiro" />
    <inkscape:path-effect
       effect="spiro"
       id="path-effect16377"
       is_visible="true" />
    <inkscape:path-effect
       effect="spiro"
       id="path-effect16371"
       is_visible="true" />
    <inkscape:path-effect
       effect="spiro"
       id="path-effect16367"
       is_visible="true" />
    <inkscape:path-effect
       is_visible="true"
       id="path-effect16363"
       effect="spiro" />
    <inkscape:path-effect
       effect="spiro"
       id="path-effect12439"
       is_visible="true" />
    <inkscape:path-effect
       is_visible="true"
       id="path-effect12435"
       effect="spiro" />
    <inkscape:path-effect
       effect="spiro"
       id="path-effect12431"
       is_visible="true" />
    <inkscape:path-effect
       is_visible="true"
       id="path-effect12427"
       effect="spiro" />
    <inkscape:path-effect
       is_visible="true"
       id="path-effect87023"
       effect="spiro" />
    <inkscape:path-effect
       effect="spiro"
       id="path-effect87021"
       is_visible="true" />
    <inkscape:path-effect
       effect="spiro"
       id="path-effect87015"
       is_visible="true" />
    <inkscape:path-effect
       is_visible="true"
       id="path-effect87013"
       effect="spiro" />
    <inkscape:path-effect
       is_visible="true"
       id="path-effect80424"
       effect="spiro" />
    <inkscape:path-effect
       is_visible="true"
       id="path-effect80421"
       effect="spiro" />
    <inkscape:path-effect
       is_visible="true"
       id="path-effect79935"
       effect="spiro" />
    <inkscape:path-effect
       is_visible="true"
       id="path-effect79932"
       effect="spiro" />
    <inkscape:path-effect
       effect="spiro"
       id="path-effect73921"
       is_visible="true" />
    <inkscape:path-effect
       effect="spiro"
       id="path-effect73919"
       is_visible="true" />
    <inkscape:path-effect
       effect="spiro"
       id="path-effect72570"
       is_visible="true" />
    <inkscape:path-effect
       effect="spiro"
       id="path-effect72568"
       is_visible="true" />
    <inkscape:path-effect
       is_visible="true"
       id="path-effect72566"
       effect="spiro" />
    <inkscape:path-effect
       is_visible="true"
       id="path-effect72564"
       effect="spiro" />
    <inkscape:path-effect
       effect="spiro"
       id="path-effect72562"
       is_visible="true" />
    <inkscape:path-effect
       is_visible="true"
       id="path-effect72560"
       effect="spiro" />
    <inkscape:path-effect
       effect="spiro"
       id="path-effect72558"
       is_visible="true" />
    <inkscape:path-effect
       effect="spiro"
       id="path-effect71024"
       is_visible="true" />
    <inkscape:path-effect
       is_visible="true"
       id="path-effect71022"
       effect="spiro" />
    <inkscape:path-effect
       is_visible="true"
       id="path-effect70196"
       effect="spiro" />
    <inkscape:path-effect
       effect="spiro"
       id="path-effect70192"
       is_visible="true" />
    <inkscape:path-effect
       effect="spiro"
       id="path-effect67205"
       is_visible="true" />
    <inkscape:path-effect
       is_visible="true"
       id="path-effect67203"
       effect="spiro" />
    <inkscape:path-effect
       effect="spiro"
       id="path-effect67201"
       is_visible="true" />
    <inkscape:path-effect
       is_visible="true"
       id="path-effect67199"
       effect="spiro" />
    <inkscape:path-effect
       is_visible="true"
       id="path-effect67189"
       effect="spiro" />
    <inkscape:path-effect
       effect="spiro"
       id="path-effect67185"
       is_visible="true" />
    <inkscape:path-effect
       is_visible="true"
       id="path-effect67181"
       effect="spiro" />
    <inkscape:path-effect
       effect="spiro"
       id="path-effect67173"
       is_visible="true" />
    <inkscape:path-effect
       is_visible="true"
       id="path-effect67169"
       effect="spiro" />
    <inkscape:path-effect
       effect="spiro"
       id="path-effect67165"
       is_visible="true" />
    <inkscape:path-effect
       is_visible="true"
       id="path-effect67162"
       effect="spiro" />
    <inkscape:path-effect
       effect="spiro"
       id="path-effect67149"
       is_visible="true" />
    <inkscape:path-effect
       is_visible="true"
       id="path-effect67143"
       effect="spiro" />
    <inkscape:path-effect
       is_visible="true"
       id="path-effect53766"
       effect="spiro" />
    <inkscape:path-effect
       effect="spiro"
       id="path-effect53762"
       is_visible="true" />
    <inkscape:path-effect
       is_visible="true"
       id="path-effect67169-4"
       effect="spiro" />
    <inkscape:path-effect
       effect="spiro"
       id="path-effect67173-9"
       is_visible="true" />
    <inkscape:path-effect
       is_visible="true"
       id="path-effect67143-6"
       effect="spiro" />
    <inkscape:path-effect
       effect="spiro"
       id="path-effect67149-1"
       is_visible="true" />
    <inkscape:path-effect
       is_visible="true"
       id="path-effect67181-6"
       effect="spiro" />
    <inkscape:path-effect
       effect="spiro"
       id="path-effect67185-7"
       is_visible="true" />
    <inkscape:path-effect
       is_visible="true"
       id="path-effect67189-6"
       effect="spiro" />
    <inkscape:path-effect
       effect="spiro"
       id="path-effect67165-7"
       is_visible="true" />
    <inkscape:path-effect
       is_visible="true"
       id="path-effect67162-6"
       effect="spiro" />
    <inkscape:path-effect
       is_visible="true"
       id="path-effect67199-6"
       effect="spiro" />
    <inkscape:path-effect
       effect="spiro"
       id="path-effect67201-6"
       is_visible="true" />
    <inkscape:path-effect
       is_visible="true"
       id="path-effect67203-4"
       effect="spiro" />
    <inkscape:path-effect
       effect="spiro"
       id="path-effect67205-7"
       is_visible="true" />
    <inkscape:path-effect
       is_visible="true"
       id="path-effect70196-7"
       effect="spiro" />
    <inkscape:path-effect
       effect="spiro"
       id="path-effect70192-8"
       is_visible="true" />
    <inkscape:path-effect
       effect="spiro"
       id="path-effect71024-5"
       is_visible="true" />
    <inkscape:path-effect
       is_visible="true"
       id="path-effect71022-8"
       effect="spiro" />
    <inkscape:path-effect
       is_visible="true"
       id="path-effect70196-7-5"
       effect="spiro" />
    <inkscape:path-effect
       effect="spiro"
       id="path-effect70192-8-2"
       is_visible="true" />
    <inkscape:path-effect
       is_visible="true"
       id="path-effect67169-4-8"
       effect="spiro" />
    <inkscape:path-effect
       effect="spiro"
       id="path-effect67173-9-6"
       is_visible="true" />
    <inkscape:path-effect
       is_visible="true"
       id="path-effect67143-6-0"
       effect="spiro" />
    <inkscape:path-effect
       effect="spiro"
       id="path-effect67149-1-2"
       is_visible="true" />
    <inkscape:path-effect
       is_visible="true"
       id="path-effect67181-6-6"
       effect="spiro" />
    <inkscape:path-effect
       effect="spiro"
       id="path-effect67185-7-4"
       is_visible="true" />
    <inkscape:path-effect
       is_visible="true"
       id="path-effect67189-6-3"
       effect="spiro" />
    <inkscape:path-effect
       effect="spiro"
       id="path-effect67165-7-0"
       is_visible="true" />
    <inkscape:path-effect
       is_visible="true"
       id="path-effect67162-6-8"
       effect="spiro" />
    <inkscape:path-effect
       is_visible="true"
       id="path-effect67199-6-3"
       effect="spiro" />
    <inkscape:path-effect
       effect="spiro"
       id="path-effect67201-6-7"
       is_visible="true" />
    <inkscape:path-effect
       is_visible="true"
       id="path-effect67203-4-1"
       effect="spiro" />
    <inkscape:path-effect
       effect="spiro"
       id="path-effect67205-7-5"
       is_visible="true" />
    <inkscape:path-effect
       effect="spiro"
       id="path-effect72570-4"
       is_visible="true" />
    <inkscape:path-effect
       effect="spiro"
       id="path-effect72568-1"
       is_visible="true" />
    <inkscape:path-effect
       is_visible="true"
       id="path-effect72566-7"
       effect="spiro" />
    <inkscape:path-effect
       is_visible="true"
       id="path-effect72564-1"
       effect="spiro" />
    <inkscape:path-effect
       effect="spiro"
       id="path-effect72562-4"
       is_visible="true" />
    <inkscape:path-effect
       is_visible="true"
       id="path-effect72560-0"
       effect="spiro" />
    <inkscape:path-effect
       effect="spiro"
       id="path-effect72558-7"
       is_visible="true" />
    <inkscape:path-effect
       effect="spiro"
       id="path-effect36856"
       is_visible="true" />
    <linearGradient
       inkscape:collect="always"
       xlink:href="#linearGradient24124"
       id="linearGradient33689"
       gradientUnits="userSpaceOnUse"
       gradientTransform="matrix(-0.19318517,-0.05176381,0.05176381,-0.19318517,1538.9936,959.06397)"
       x1="1327.24"
       y1="581.9361"
       x2="1296.8187"
       y2="551.51477" />
    <linearGradient
       inkscape:collect="always"
       xlink:href="#linearGradient24124"
       id="linearGradient33693"
       gradientUnits="userSpaceOnUse"
       gradientTransform="matrix(-0.10813575,0.01906725,0.01906725,0.10813575,1445.8061,623.82506)"
       x1="1327.24"
       y1="581.9361"
       x2="1296.8187"
       y2="551.51477" />
  </defs>
  <metadata
     id="metadata47632">
    <rdf:RDF>
      <cc:Work
         rdf:about="">
        <dc:format>image/svg+xml</dc:format>
        <dc:type
           rdf:resource="http://purl.org/dc/dcmitype/StillImage" />
        <dc:title></dc:title>
      </cc:Work>
    </rdf:RDF>
  </metadata>
  <g
     inkscape:groupmode="layer"
     id="layer3"
     inkscape:label="interactivos">
    <g
       id="g57092"
       transform="matrix(2.2594816,0,0,2.2594816,199.5594,607.36217)"
       inkscape:label="Hershey Text">
      <path
         id="path57094"
         transform="translate(13,0)"
         d="m -8,-8 -1,2 -1,3 0,4 1,3 2,3 2,1 3,1 L 1,9 4,8 6,7 8,5 9,3 m -18,-2 1,3 2,2 2,1 3,1 3,0 3,-1 m -13,-15 -1,3 0,4 1,3 2,3 2,1 3,1 L 2,7 5,6 7,5 9,3 m -19,-12 1,-2 2,-1 4,0 6,1 4,0 2,-1 m -11,1 4,1 4,0 m -16,1 1,-1 2,-1 3,0 6,2 3,0 2,-1 2,-2 m -8,3 -1,1 -2,1 0,11 m 1,-11 0,9 M 0,-8 0,1 -1,3 -2,4 M 5,-9 5,6"
         style="fill:none;stroke:#000000"
         inkscape:connector-curvature="0" />
      <path
         id="path57096"
         transform="translate(33,0)"
         d="m -5,-3 0,9 -2,1 m 3,-9 0,8 3,2 m -2,-11 0,9 2,1 1,1 m -7,-1 2,0 2,1 1,1 2,-1 3,-1 2,0 m -10,-10 2,0 3,-1 2,-1 1,1 2,1 2,0 -2,1 0,9 M 1,-4 4,-2 4,6 m -4,-10 1,1 2,1 0,9"
         style="fill:none;stroke:#000000"
         inkscape:connector-curvature="0" />
      <path
         id="path57098"
         transform="translate(51,0)"
         d="m -5,-3 0,9 -2,1 m 3,-9 0,8 3,2 m -2,-11 0,9 2,1 1,1 m -7,-1 2,0 2,1 1,1 2,-1 3,-1 2,0 m -10,-10 2,0 3,-1 2,-1 1,1 2,1 2,0 -2,1 0,9 M 1,-4 4,-2 4,6 m -4,-10 1,1 2,1 0,9"
         style="fill:none;stroke:#000000"
         inkscape:connector-curvature="0" />
      <path
         id="path57100"
         transform="translate(65,0)"
         d="m -2,-10 1,2 0,14 -2,1 1,0 2,1 1,1 M 0,-8 -1,-10 0,-11 0,7 2,8 M -2,-10 1,-12 1,6 3,7 4,7 2,8 1,9"
         style="fill:none;stroke:#000000"
         inkscape:connector-curvature="0" />
      <path
         id="path57102"
         transform="translate(78,0)"
         d="m -5,-3 0,4 2,1 6,0 2,1 0,4 m -9,-10 0,4 m 8,2 0,4 m -6,-11 -1,1 0,4 2,1 M 1,2 3,3 3,7 2,8 m -7,-11 3,-1 2,-1 2,1 2,0 1,-1 m -6,1 2,0 m -3,0 2,1 2,0 2,-1 M 5,7 2,8 0,9 -2,8 -4,8 -6,9 M 1,8 -1,8 M 2,8 0,7 -3,7 -6,9 M 5,-5 4,-3 2,0 -3,5 -6,9"
         style="fill:none;stroke:#000000"
         inkscape:connector-curvature="0" />
      <path
         id="path57104"
         transform="translate(94,0)"
         d=""
         style="fill:none;stroke:#000000"
         inkscape:connector-curvature="0" />
      <path
         id="path57106"
         transform="translate(110,0)"
         d="m -4,-10 0,16 -2,1 1,0 2,1 1,1 m -1,-19 0,17 2,1 m -1,-18 0,16 2,1 1,0 -2,1 -1,1 m -2,-19 3,-1 2,-1 1,1 2,1 1,0 m -5,-1 1,1 2,0 m -5,0 1,-1 2,2 2,0 2,-1 m -12,5 3,0 m 2,0 4,0"
         style="fill:none;stroke:#000000"
         inkscape:connector-curvature="0" />
      <path
         id="path57108"
         transform="translate(124,0)"
         d="m -5,-3 0,9 -2,1 m 3,-9 0,8 3,2 m -2,-11 0,9 2,1 1,1 m -7,-1 2,0 2,1 1,1 2,-1 3,-1 2,0 m -10,-10 2,0 3,-1 2,-1 1,1 2,1 2,0 -2,1 0,9 M 1,-4 4,-2 4,6 m -4,-10 1,1 2,1 0,9"
         style="fill:none;stroke:#000000"
         inkscape:connector-curvature="0" />
      <path
         id="path57110"
         transform="translate(141,0)"
         d="m -6,-3 1,0 1,1 0,8 -2,1 1,0 2,1 1,1 m -3,-13 2,1 0,10 2,1 m -5,-11 2,-2 2,2 0,9 2,1 1,0 -2,1 -1,1 m 0,-12 4,-2 1,1 2,1 1,0 m -5,-1 1,1 2,0 m -4,-1 2,2 2,0 2,-1"
         style="fill:none;stroke:#000000"
         inkscape:connector-curvature="0" />
      <path
         id="path57112"
         transform="translate(155,0)"
         d=""
         style="fill:none;stroke:#000000"
         inkscape:connector-curvature="0" />
      <path
         id="path57114"
         transform="translate(171,0)"
         d="m -2,0 -2,2 -1,2 0,2 1,2 2,1 2,-2 3,-1 m -8,-2 1,2 1,1 2,1 m -3,-6 0,2 1,2 2,1 1,0 m -4,-9 2,0 3,-1 2,-1 1,-1 2,2 -1,1 0,8 1,1 1,0 m -10,-11 -1,1 3,0 m 3,0 3,0 -1,-1 0,11 1,1 m -10,-11 2,-2 1,1 2,1 3,1 0,9 2,2 2,-2 M -5,-3 0,2"
         style="fill:none;stroke:#000000"
         inkscape:connector-curvature="0" />
      <path
         id="path57116"
         transform="translate(188,0)"
         d=""
         style="fill:none;stroke:#000000"
         inkscape:connector-curvature="0" />
      <path
         id="path57118"
         transform="translate(208,0)"
         d="m -10,-10 2,-2 3,0 2,1 2,-1 m -6,1 3,0 m -6,1 2,-1 2,1 3,0 2,-2 m -4,5 -1,1 -1,2 0,1 -2,0 -1,1 0,2 1,-1 2,0 0,6 m 1,-10 0,8 m -3,-5 3,0 m 1,-5 0,9 -1,2 -1,1 M -8,9 -5,7 -2,6 0,6 3,7 M -6,8 -4,7 0,7 2,8 M -8,9 -4,8 -1,8 1,9 3,7 m -3,-16 -1,1 -1,2 0,9 m 1,-10 0,8 M 0,-9 0,0 -1,2 -2,3 m 2,-12 3,-2 2,-1 2,1 1,2 0,3 -1,2 -1,1 -4,2 -2,1 m 5,-11 1,0 1,2 0,4 -1,1 m -3,-7 2,1 1,2 0,3 -1,2 -3,2 m 0,0 2,1 1,1 3,5 1,1 1,0 M 5,2 7,6 9,8 M 2,-1 4,1 6,7 8,9 10,7"
         style="fill:none;stroke:#000000"
         inkscape:connector-curvature="0" />
      <path
         id="path57120"
         transform="translate(228,0)"
         d="m -4,-3 0,9 -2,1 1,0 2,1 1,1 M -3,-3 -3,7 -1,8 M -2,-3 -2,6 0,7 1,7 -1,8 -2,9 M -4,-3 0,-4 2,-5 5,-1 3,0 -2,3 m 3,-7 3,3 m -6,-2 2,-1 3,4"
         style="fill:none;stroke:#000000"
         inkscape:connector-curvature="0" />
      <path
         id="path57122"
         transform="translate(242,0)"
         d="m -2,0 -2,2 -1,2 0,2 1,2 2,1 2,-2 3,-1 m -8,-2 1,2 1,1 2,1 m -3,-6 0,2 1,2 2,1 1,0 m -4,-9 2,0 3,-1 2,-1 1,-1 2,2 -1,1 0,8 1,1 1,0 m -10,-11 -1,1 3,0 m 3,0 3,0 -1,-1 0,11 1,1 m -10,-11 2,-2 1,1 2,1 3,1 0,9 2,2 2,-2 M -5,-3 0,2"
         style="fill:none;stroke:#000000"
         inkscape:connector-curvature="0" />
      <path
         id="path57124"
         transform="translate(260,0)"
         d="m 0,-5 -2,1 -3,1 0,9 -2,1 m 3,-10 0,9 3,2 m 1,-13 -3,2 0,9 2,1 1,1 m -7,-1 2,0 2,1 1,1 2,-1 3,-1 2,0 m -10,-17 3,-2 1,3 6,6 0,10 m -7,-16 -2,-1 1,-1 1,2 6,6 0,9 m -9,-16 8,8 0,9"
         style="fill:none;stroke:#000000"
         inkscape:connector-curvature="0" />
      <path
         id="path57126"
         transform="translate(281,0)"
         d="M -9,0 9,0"
         style="fill:none;stroke:#000000"
         inkscape:connector-curvature="0" />
      <path
         id="path57128"
         transform="translate(307,0)"
         d="m -10,-12 1,1 1,2 0,6 -2,0 -1,1 0,2 1,-1 2,0 0,7 -2,1 m 2,-17 1,2 0,14 m -3,-8 3,0 m 1,9 2,0 2,1 m -8,-20 2,1 1,1 1,2 0,14 3,0 2,1 m -9,0 3,0 3,1 1,1 2,-2 3,-1 2,1 1,2 2,-2 3,-1 m -13,-16 3,-2 2,2 0,16 3,0 2,1 m -7,-18 1,1 0,16 m -4,-16 2,0 1,1 0,15 -1,1 m 6,0 1,1 m -1,-18 3,-2 2,2 0,16 M 8,-11 9,-10 9,6 M 5,-10 7,-10 8,-9 8,6 7,7 M -3,-10 -3,6 M 5,-10 5,6 m -8,-10 3,0 m -3,4 3,0 m 5,-4 3,0 M 5,0 8,0"
         style="fill:none;stroke:#000000"
         inkscape:connector-curvature="0" />
      <path
         id="path57130"
         transform="translate(329,0)"
         d="m -6,-3 1,0 1,1 0,8 -2,1 1,0 2,1 1,1 m -3,-13 2,1 0,10 2,1 m -5,-11 2,-2 2,2 0,9 2,1 1,0 -2,1 -1,1 m 0,-12 4,-2 1,1 2,1 1,0 m -5,-1 1,1 2,0 m -4,-1 2,2 2,0 2,-1"
         style="fill:none;stroke:#000000"
         inkscape:connector-curvature="0" />
      <path
         id="path57132"
         transform="translate(340,0)"
         d="m 0,-12 -2,2 2,1 2,-1 -2,-2 m 0,1 -1,1 2,0 -1,-1 m 0,6 -1,1 -2,1 2,1 0,9 2,2 2,-2 m -3,-9 1,-1 -1,-1 -1,1 1,1 0,9 1,1 m -1,-13 1,1 2,1 -2,1 0,8 1,1 1,0"
         style="fill:none;stroke:#000000"
         inkscape:connector-curvature="0" />
      <path
         id="path57134"
         transform="translate(350,0)"
         d="m -2,-10 1,2 0,14 -2,1 1,0 2,1 1,1 M 0,-8 -1,-10 0,-11 0,7 2,8 M -2,-10 1,-12 1,6 3,7 4,7 2,8 1,9 m -5,-14 3,0 m 2,0 3,0"
         style="fill:none;stroke:#000000"
         inkscape:connector-curvature="0" />
      <path
         id="path57136"
         transform="translate(363,0)"
         d="m -4,-3 0,9 -2,1 1,0 2,1 1,1 M -3,-3 -3,7 -1,8 M -2,-3 -2,6 0,7 1,7 -1,8 -2,9 M -4,-3 0,-4 2,-5 5,-1 3,0 -2,3 m 3,-7 3,3 m -6,-2 2,-1 3,4"
         style="fill:none;stroke:#000000"
         inkscape:connector-curvature="0" />
      <path
         id="path57138"
         transform="translate(377,0)"
         d=""
         style="fill:none;stroke:#000000"
         inkscape:connector-curvature="0" />
      <path
         id="path57140"
         transform="translate(398,0)"
         d="m -10,-12 1,1 1,2 0,6 -2,0 -1,1 0,2 1,-1 2,0 0,7 -2,1 m 2,-17 1,2 0,14 m -3,-8 3,0 m 1,9 2,0 2,1 m -8,-20 2,1 1,1 1,2 0,14 3,0 2,1 m -9,0 3,0 3,1 1,1 2,-2 3,-1 2,1 1,2 2,-2 3,-1 m -13,-16 3,-2 2,2 0,16 3,0 2,1 m -7,-18 1,1 0,16 m -4,-16 2,0 1,1 0,15 -1,1 m 6,0 1,1 m -1,-18 3,-2 2,2 0,16 M 8,-11 9,-10 9,6 M 5,-10 7,-10 8,-9 8,6 7,7 M -3,-10 -3,6 M 5,-10 5,6 m -8,-10 3,0 m -3,4 3,0 m 5,-4 3,0 M 5,0 8,0"
         style="fill:none;stroke:#000000"
         inkscape:connector-curvature="0" />
      <path
         id="path57142"
         transform="translate(421,0)"
         d="m -5,-3 0,9 -2,1 m 3,-9 0,8 3,2 m -2,-11 0,9 2,1 1,1 m -7,-1 2,0 2,1 1,1 2,-1 3,-1 2,0 m -10,-10 2,0 3,-1 2,-1 1,1 2,1 2,0 -2,1 0,9 M 1,-4 4,-2 4,6 m -4,-10 1,1 2,1 0,9"
         style="fill:none;stroke:#000000"
         inkscape:connector-curvature="0" />
      <path
         id="path57144"
         transform="translate(438,0)"
         d="m -6,-3 1,0 1,1 0,8 -2,1 1,0 2,1 1,1 m -3,-13 2,1 0,10 2,1 m -5,-11 2,-2 2,2 0,9 2,1 1,0 -2,1 -1,1 m 0,-12 4,-2 1,1 2,1 1,0 m -5,-1 1,1 2,0 m -4,-1 2,2 2,0 2,-1"
         style="fill:none;stroke:#000000"
         inkscape:connector-curvature="0" />
      <path
         id="path57146"
         transform="translate(449,0)"
         d="m -2,-10 1,2 0,14 -2,1 1,0 2,1 1,1 M 0,-8 -1,-10 0,-11 0,7 2,8 M -2,-10 1,-12 1,6 3,7 4,7 2,8 1,9"
         style="fill:none;stroke:#000000"
         inkscape:connector-curvature="0" />
      <path
         id="path57148"
         transform="translate(463,0)"
         d="m 0,-5 -2,1 -3,1 0,9 -2,1 m 3,-10 0,9 3,2 m 1,-13 -3,2 0,9 2,1 1,1 m -7,-1 2,0 2,1 1,1 2,-1 3,-1 2,0 m -10,-17 3,-2 1,3 6,6 0,10 m -7,-16 -2,-1 1,-1 1,2 6,6 0,9 m -9,-16 8,8 0,9"
         style="fill:none;stroke:#000000"
         inkscape:connector-curvature="0" />
      <path
         id="path57150"
         transform="translate(477,0)"
         d="M 0,6 -2,8 0,9 2,8 0,6 M 0,7 -1,8 1,8 0,7"
         style="fill:none;stroke:#000000"
         inkscape:connector-curvature="0" />
    </g>
    <g
       id="g34436"
       transform="translate(-43.684857,847.81146)">
      <g
         style="fill:#aa0000"
         transform="matrix(1.3812616,0,0,1.3812616,-102.14048,-209.7851)"
         id="g34287">
        <path
           inkscape:connector-curvature="0"
           id="path34080"
           style="font-size:40px;font-style:normal;font-variant:normal;font-weight:900;font-stretch:normal;text-align:start;line-height:125%;letter-spacing:0px;word-spacing:0px;writing-mode:lr-tb;text-anchor:start;fill:#aa0000;fill-opacity:1;stroke:none;font-family:Chivo;-inkscape-font-specification:Chivo Heavy"
           d="m 250.89511,524.57588 0,-15.00801 50.57242,0 0,15.00801 -15.82662,0 0,47.38891 -18.91918,0 0,-47.38891 -15.82662,0" />
        <path
           inkscape:connector-curvature="0"
           id="path34082"
           style="font-size:40px;font-style:normal;font-variant:normal;font-weight:900;font-stretch:normal;text-align:start;line-height:125%;letter-spacing:0px;word-spacing:0px;writing-mode:lr-tb;text-anchor:start;fill:#aa0000;fill-opacity:1;stroke:none;font-family:Chivo;-inkscape-font-specification:Chivo Heavy"
           d="m 300.9247,549.68018 0,-1.91011 c 0,-6.79149 2.30425,-12.37022 6.91278,-16.7362 4.48723,-4.3053 10.21754,-6.45795 17.19098,-6.45799 l 2.91065,0 c 6.97337,4e-5 12.7037,2.15269 17.19098,6.45799 4.60846,4.36598 6.91273,9.94471 6.91278,16.7362 l 0,1.91011 c -5e-5,6.85215 -2.30432,12.46119 -6.91278,16.82715 -4.48728,4.24467 -10.21761,6.36703 -17.19098,6.36703 l -2.91065,0 c -6.97344,0 -12.70375,-2.15267 -17.19098,-6.45799 -4.60853,-4.36596 -6.91278,-9.94469 -6.91278,-16.73619 m 19.28301,5.82128 c -2e-5,1.75853 0.60637,3.27448 1.81915,4.54788 1.21274,1.21279 2.69837,1.81915 4.45692,1.81915 1.75849,0 3.24412,-0.60636 4.45693,-1.81915 1.21273,-1.2734 1.8191,-2.78935 1.81915,-4.54788 l 0,-13.55268 c -5e-5,-1.75848 -0.60642,-3.24412 -1.81915,-4.45692 -1.21281,-1.27339 -2.69844,-1.91009 -4.45693,-1.91011 -1.75855,2e-5 -3.24418,0.63672 -4.45692,1.91011 -1.21278,1.2128 -1.81917,2.69844 -1.81915,4.45692 l 0,13.55268" />
        <path
           inkscape:connector-curvature="0"
           id="path34084"
           style="font-size:40px;font-style:normal;font-variant:normal;font-weight:900;font-stretch:normal;text-align:start;line-height:125%;letter-spacing:0px;word-spacing:0px;writing-mode:lr-tb;text-anchor:start;fill:#aa0000;fill-opacity:1;stroke:none;font-family:Chivo;-inkscape-font-specification:Chivo Heavy"
           d="m 356.77392,549.68018 0,-1.91011 c 0,-6.79149 2.30425,-12.37022 6.91277,-16.7362 4.48721,-4.3053 10.21754,-6.45795 17.19099,-6.45799 l 2.91064,0 c 6.97338,4e-5 12.70369,2.15269 17.19099,6.45799 4.60846,4.36598 6.91271,9.94471 6.91278,16.7362 l 0,1.91011 c -7e-5,6.85215 -2.30432,12.46119 -6.91278,16.82715 -4.4873,4.24467 -10.21761,6.36703 -17.19099,6.36703 l -2.91064,0 c -6.97345,0 -12.70378,-2.15267 -17.19099,-6.45799 -4.60852,-4.36596 -6.91277,-9.94469 -6.91277,-16.73619 m 19.28301,5.82128 c -3e-5,1.75853 0.60634,3.27448 1.81915,4.54788 1.21274,1.21279 2.69837,1.81915 4.45692,1.81915 1.75848,0 3.24412,-0.60636 4.45692,-1.81915 1.21272,-1.2734 1.81911,-2.78935 1.81916,-4.54788 l 0,-13.55268 c -5e-5,-1.75848 -0.60644,-3.24412 -1.81916,-4.45692 -1.2128,-1.27339 -2.69844,-1.91009 -4.45692,-1.91011 -1.75855,2e-5 -3.24418,0.63672 -4.45692,1.91011 -1.21281,1.2128 -1.81918,2.69844 -1.81915,4.45692 l 0,13.55268" />
        <path
           inkscape:connector-curvature="0"
           id="path34086"
           style="font-size:40px;font-style:normal;font-variant:normal;font-weight:900;font-stretch:normal;text-align:start;line-height:125%;letter-spacing:0px;word-spacing:0px;writing-mode:lr-tb;text-anchor:start;fill:#aa0000;fill-opacity:1;stroke:none;font-family:Chivo;-inkscape-font-specification:Chivo Heavy"
           d="m 414.80609,571.96479 0,-65.48947 18.00961,0 0,65.48947 -18.00961,0" />
        <path
           inkscape:connector-curvature="0"
           id="path34088"
           style="font-size:40px;font-style:normal;font-variant:normal;font-weight:900;font-stretch:normal;text-align:start;line-height:125%;letter-spacing:0px;word-spacing:0px;writing-mode:lr-tb;text-anchor:start;fill:#aa0000;fill-opacity:1;stroke:none;font-family:Chivo;-inkscape-font-specification:Chivo Heavy"
           d="m 463.28688,535.30887 c -4.48726,3e-5 -6.73088,0.87929 -6.73086,2.63778 -2e-5,1.09151 0.72764,1.84948 2.18298,2.27394 1.4553,0.42449 3.24412,0.75799 5.3665,1.00053 2.18296,0.24258 4.51752,0.54577 7.00373,0.90957 2.54677,0.36386 4.88136,1.03087 7.00374,2.00107 5.09358,2.36492 7.64039,6.48833 7.64044,12.37024 -5e-5,5.70001 -2.24368,9.97502 -6.73087,12.82502 -3.82026,2.36489 -8.76228,3.54734 -14.82608,3.54734 l -4.7298,0 c -5.33619,0 -9.9144,-1.15213 -13.7346,-3.45639 -4.24469,-2.66808 -6.36703,-6.33672 -6.36703,-11.00586 l 0,-0.81862 c 0,-0.24254 0.0302,-0.51541 0.091,-0.81862 l 14.73513,0 0,0.36383 c -2e-5,1.69788 0.90955,2.97129 2.72873,3.82022 1.33403,0.60639 3.03189,0.90957 5.09362,0.90957 5.15423,0 7.73135,-0.93988 7.7314,-2.81968 -5e-5,-1.15212 -0.72768,-1.94042 -2.18298,-2.3649 -1.39472,-0.4851 -3.18354,-0.87924 -5.3665,-1.18245 -2.12236,-0.30318 -4.42663,-0.66701 -6.91278,-1.09149 -2.48619,-0.42445 -4.82077,-1.1218 -7.00373,-2.09202 -4.97236,-2.36488 -7.45853,-6.39733 -7.45853,-12.09736 0,-5.09361 2.3649,-9.09572 7.0947,-12.00641 4.00211,-2.4255 8.76221,-3.63826 14.28034,-3.6383 l 2.81968,0 c 4.72975,4e-5 9.0351,1.00058 12.91598,3.0016 4.54784,2.36494 6.82178,5.51812 6.82182,9.45959 l -0.0909,1.72819 c -0.0607,0.24259 -0.091,0.45481 -0.091,0.63671 l -14.91705,0 c -4e-5,-2.12232 -1.42503,-3.42604 -4.27501,-3.91118 -0.78832,-0.1212 -1.48567,-0.18192 -2.09202,-0.18192" />
        <path
           inkscape:connector-curvature="0"
           id="path34090"
           style="font-size:40px;font-style:normal;font-variant:normal;font-weight:900;font-stretch:normal;text-align:start;line-height:125%;letter-spacing:0px;word-spacing:0px;writing-mode:lr-tb;text-anchor:start;fill:#aa0000;fill-opacity:1;stroke:none;font-family:Chivo;-inkscape-font-specification:Chivo Heavy"
           d="m 542.59977,517.75406 c -1.69791,-0.60635 -3.21387,-0.90953 -4.54788,-0.90958 -1.27343,5e-5 -2.24365,0.0607 -2.91064,0.18192 -0.60642,0.0607 -1.15216,0.2426 -1.63724,0.54574 -1.15216,0.84898 -1.72822,2.36495 -1.72819,4.54788 l 0,3.36543 10.91491,0 0,12.91598 -10.91491,0 0,33.56336 -18.00961,0 0,-33.56336 -5.82129,0 0,-12.91598 5.82129,0 0,-6.0032 c 0,-9.15634 5.54841,-13.73453 16.64524,-13.7346 2.72871,7e-5 5.24521,0.27295 7.54948,0.81862 2.36488,0.48517 3.91116,0.87931 4.63884,1.18245 l 0,10.00534" />
        <path
           inkscape:connector-curvature="0"
           id="path34092"
           style="font-size:40px;font-style:normal;font-variant:normal;font-weight:900;font-stretch:normal;text-align:start;line-height:125%;letter-spacing:0px;word-spacing:0px;writing-mode:lr-tb;text-anchor:start;fill:#aa0000;fill-opacity:1;stroke:none;font-family:Chivo;-inkscape-font-specification:Chivo Heavy"
           d="m 545.51482,549.68018 0,-1.91011 c -2e-5,-6.79149 2.30426,-12.37022 6.91278,-16.7362 4.48721,-4.3053 10.21754,-6.45795 17.19099,-6.45799 l 2.91064,0 c 6.97338,4e-5 12.70369,2.15269 17.19099,6.45799 4.60846,4.36598 6.91271,9.94471 6.91278,16.7362 l 0,1.91011 c -7e-5,6.85215 -2.30432,12.46119 -6.91278,16.82715 -4.4873,4.24467 -10.21761,6.36703 -17.19099,6.36703 l -2.91064,0 c -6.97345,0 -12.70378,-2.15267 -17.19099,-6.45799 -4.60852,-4.36596 -6.9128,-9.94469 -6.91278,-16.73619 m 19.28302,5.82128 c -3e-5,1.75853 0.60634,3.27448 1.81915,4.54788 1.21274,1.21279 2.69837,1.81915 4.45692,1.81915 1.75848,0 3.24412,-0.60636 4.45692,-1.81915 1.21272,-1.2734 1.81911,-2.78935 1.81915,-4.54788 l 0,-13.55268 c -4e-5,-1.75848 -0.60643,-3.24412 -1.81915,-4.45692 -1.2128,-1.27339 -2.69844,-1.91009 -4.45692,-1.91011 -1.75855,2e-5 -3.24418,0.63672 -4.45692,1.91011 -1.21281,1.2128 -1.81918,2.69844 -1.81915,4.45692 l 0,13.55268" />
        <path
           inkscape:connector-curvature="0"
           id="path34094"
           style="font-size:40px;font-style:normal;font-variant:normal;font-weight:900;font-stretch:normal;text-align:start;line-height:125%;letter-spacing:0px;word-spacing:0px;writing-mode:lr-tb;text-anchor:start;fill:#aa0000;fill-opacity:1;stroke:none;font-family:Chivo;-inkscape-font-specification:Chivo Heavy"
           d="m 603.547,571.96479 0,-46.47934 13.46173,0 2.00106,6.73087 c 1.4553,-2.84998 3.88085,-5.06327 7.27661,-6.63991 1.4553,-0.66699 3.12285,-1.00049 5.00267,-1.00053 4.06273,4e-5 7.1856,1.12185 9.36863,3.36543 2.18294,2.24365 3.27443,5.27556 3.27448,9.09576 l 0,1.54628 c -5e-5,0.97024 -0.0607,2.12236 -0.18192,3.45639 l -0.18191,2.27394 -14.73514,0 0,-2.18299 c -2e-5,-1.27338 -0.39416,-2.33456 -1.18244,-3.18351 -0.72769,-0.90955 -1.63726,-1.36434 -2.72873,-1.36437 -1.03087,3e-5 -1.94045,0.45482 -2.72873,1.36437 -0.72768,0.84895 -1.09151,1.91013 -1.09149,3.18351 l 0,29.8341 -17.55482,0" />
        <path
           inkscape:connector-curvature="0"
           id="path34096"
           style="font-size:40px;font-style:normal;font-variant:normal;font-weight:900;font-stretch:normal;text-align:start;line-height:125%;letter-spacing:0px;word-spacing:0px;writing-mode:lr-tb;text-anchor:start;fill:#aa0000;fill-opacity:1;stroke:none;font-family:Chivo;-inkscape-font-specification:Chivo Heavy"
           d="m 696.0507,565.5068 c -4.24472,4.91171 -9.24737,7.36756 -15.00801,7.36756 -4.72979,0 -8.39841,-0.7883 -11.00587,-2.36489 -3.57765,-2.12234 -5.36649,-5.97289 -5.36649,-11.55162 0,-6.12447 2.72872,-10.36914 8.18618,-12.73406 4.54788,-2.00105 11.97607,-3.00158 22.28461,-3.0016 l 0,-2.63777 c -2e-5,-1.75849 -0.57608,-3.09254 -1.72819,-4.00214 -1.15216,-0.97018 -2.48619,-1.4553 -4.00214,-1.45532 -1.45534,2e-5 -2.8197,0.39419 -4.09309,1.18245 -1.27343,0.78833 -1.91013,1.81917 -1.91011,3.09256 l 0,0.36383 -17.28194,0 c -0.0607,-0.30316 -0.091,-0.72764 -0.091,-1.27341 0,-4.06273 1.97076,-7.33721 5.91224,-9.82342 4.12341,-2.72868 9.42926,-4.09305 15.91758,-4.09309 l 3.00161,0 c 6.9734,4e-5 12.43083,1.42503 16.37236,4.27501 3.57764,2.54685 5.36646,6.03355 5.3665,10.46012 l 0,19.19205 c -4e-5,1.21279 0.30316,2.09203 0.90958,2.63777 0.60634,0.48513 1.334,0.72766 2.18298,0.72766 0.84888,0 1.81911,-0.27287 2.91064,-0.81861 l 0,9.73246 c -2.18302,1.39467 -5.27558,2.09202 -9.27767,2.09202 -4.00216,0 -7.09472,-0.66703 -9.27768,-2.00106 -2.183,-1.3947 -3.51705,-3.18352 -4.00213,-5.3665 m -12.55215,-8.00427 c -2e-5,1.75853 0.54572,2.94098 1.63724,3.54735 1.15211,0.54574 2.48616,0.81861 4.00213,0.81861 1.51595,0 2.88031,-0.57605 4.09309,-1.72819 1.27339,-1.15211 1.91009,-2.69839 1.91011,-4.63884 l 0,-4.00213 c -4.18407,2e-5 -7.18567,0.57608 -9.0048,1.72819 -1.75853,1.09149 -2.63779,2.5165 -2.63777,4.27501" />
      </g>
      <g
         transform="matrix(1.3812616,0,0,1.3812616,-757.94258,-93.421449)"
         id="g34270">
        <path
           inkscape:connector-curvature="0"
           id="path34098"
           style="font-size:40px;font-style:normal;font-variant:normal;font-weight:900;font-stretch:normal;text-align:start;line-height:125%;letter-spacing:0px;word-spacing:0px;writing-mode:lr-tb;text-anchor:start;fill:#000000;fill-opacity:1;stroke:none;font-family:Chivo;-inkscape-font-specification:Chivo Heavy"
           d="m 797.64843,571.14617 c -2.85005,1.15211 -6.42773,1.72819 -10.733,1.72819 -4.24472,0 -7.48888,-0.84895 -9.73246,-2.54681 -2.18301,-1.75851 -3.2745,-4.82075 -3.27448,-9.18672 -2e-5,-4.00213 -0.33354,-6.79148 -1.00053,-8.3681 -0.60641,-1.63721 -1.45534,-2.8803 -2.54681,-3.72926 -1.09152,-0.84893 -2.60748,-1.27338 -4.54788,-1.2734 l -5.27554,0 0,24.19472 -18.64631,0 0,-62.39692 35.01867,0 c 4.66913,5e-5 8.67127,1.39475 12.00641,4.18405 3.51699,3.03196 5.27549,6.79156 5.27554,11.27875 -5e-5,3.33514 -1.09154,6.48834 -3.27447,9.45959 -2.12239,2.91066 -4.76016,4.66917 -7.91332,5.27554 l 0,0.45479 c 3.51699,1.03086 6.06381,3.03193 7.64044,6.0032 1.57655,2.91066 2.36485,6.24576 2.3649,10.00533 -5e-5,4.42661 0.66697,7.5798 2.00107,9.45959 0.60632,0.84893 1.48558,1.42501 2.63777,1.7282 l 0,3.72926 m -37.1107,-37.29262 9.6415,0 c 1.27339,3e-5 2.33454,-0.42443 3.18352,-1.2734 0.90955,-0.90956 1.36434,-2.00103 1.36436,-3.27448 l 0,-0.90957 c -2e-5,-1.27336 -0.45481,-2.33454 -1.36436,-3.18352 -0.84898,-0.90953 -1.91013,-1.36432 -3.18352,-1.36436 l -9.6415,0 0,10.00533" />
        <path
           inkscape:connector-curvature="0"
           id="path34100"
           style="font-size:40px;font-style:normal;font-variant:normal;font-weight:900;font-stretch:normal;text-align:start;line-height:125%;letter-spacing:0px;word-spacing:0px;writing-mode:lr-tb;text-anchor:start;fill:#000000;fill-opacity:1;stroke:none;font-family:Chivo;-inkscape-font-specification:Chivo Heavy"
           d="m 800.1999,550.13496 0,-2.81968 c -2e-5,-7.09467 2.33457,-12.70371 7.00374,-16.82716 4.42659,-3.94146 10.36914,-5.9122 17.82769,-5.91224 l 2.27394,0 c 7.034,4e-5 12.58241,1.97078 16.64524,5.91224 3.88079,3.82024 5.82122,8.82291 5.82128,15.00801 l 0,5.63937 -30.28888,0 0,4.36596 c -2e-5,2.12236 0.667,3.72926 2.00107,4.82075 1.39465,1.03087 3.12285,1.54628 5.18458,1.54628 2.06167,0 3.63826,-0.66701 4.7298,-2.00106 1.09144,-1.33403 1.63719,-3.12287 1.63724,-5.3665 l 16.64524,0 c -7e-5,5.33619 -1.9708,9.70215 -5.91225,13.09789 -4.12347,3.51701 -9.70219,5.27554 -16.7362,5.27554 l -1.36436,0 c -7.45855,0 -13.49206,-1.97075 -18.10056,-5.91224 -4.91174,-4.18405 -7.36759,-9.79309 -7.36757,-16.82716 m 19.28301,-6.91277 12.55215,0 0,-1.27341 c -4e-5,-1.75848 -0.60644,-3.24412 -1.81915,-4.45692 -1.21281,-1.27339 -2.69844,-1.91009 -4.45692,-1.91011 -1.75855,2e-5 -3.24419,0.63672 -4.45692,1.91011 -1.21281,1.2128 -1.81918,2.69844 -1.81916,4.45692 l 0,1.27341" />
        <path
           inkscape:connector-curvature="0"
           id="path34102"
           style="font-size:40px;font-style:normal;font-variant:normal;font-weight:900;font-stretch:normal;text-align:start;line-height:125%;letter-spacing:0px;word-spacing:0px;writing-mode:lr-tb;text-anchor:start;fill:#000000;fill-opacity:1;stroke:none;font-family:Chivo;-inkscape-font-specification:Chivo Heavy"
           d="m 885.9741,565.5068 c -4.24472,4.91171 -9.24736,7.36756 -15.008,7.36756 -4.7298,0 -8.39844,-0.7883 -11.00587,-2.36489 -3.57766,-2.12234 -5.3665,-5.97289 -5.3665,-11.55162 0,-6.12447 2.72873,-10.36914 8.18618,-12.73406 4.54788,-2.00105 11.97607,-3.00158 22.28462,-3.0016 l 0,-2.63777 c -3e-5,-1.75849 -0.57611,-3.09254 -1.7282,-4.00214 -1.15216,-0.97018 -2.48619,-1.4553 -4.00213,-1.45532 -1.45535,2e-5 -2.81971,0.39419 -4.0931,1.18245 -1.27342,0.78833 -1.91013,1.81917 -1.91011,3.09256 l 0,0.36383 -17.28194,0 c -0.0607,-0.30316 -0.091,-0.72764 -0.091,-1.27341 0,-4.06273 1.97076,-7.33721 5.91225,-9.82342 4.1234,-2.72868 9.42925,-4.09305 15.91758,-4.09309 l 3.0016,0 c 6.97338,4e-5 12.43083,1.42503 16.37237,4.27501 3.57761,2.54685 5.36645,6.03355 5.36649,10.46012 l 0,19.19205 c -4e-5,1.21279 0.30314,2.09203 0.90958,2.63777 0.60635,0.48513 1.33401,0.72766 2.18298,0.72766 0.84889,0 1.81911,-0.27287 2.91065,-0.81861 l 0,9.73246 c -2.18303,1.39467 -5.27559,2.09202 -9.27768,2.09202 -4.00218,0 -7.09474,-0.66703 -9.27767,-2.00106 -2.18301,-1.3947 -3.51706,-3.18352 -4.00214,-5.3665 m -12.55215,-8.00427 c -2e-5,1.75853 0.54573,2.94098 1.63724,3.54735 1.15211,0.54574 2.48614,0.81861 4.00213,0.81861 1.51595,0 2.88031,-0.57605 4.0931,-1.72819 1.27338,-1.15211 1.91008,-2.69839 1.91011,-4.63884 l 0,-4.00213 c -4.18408,2e-5 -7.18568,0.57608 -9.00481,1.72819 -1.75853,1.09149 -2.63779,2.5165 -2.63777,4.27501" />
        <path
           inkscape:connector-curvature="0"
           id="path34104"
           style="font-size:40px;font-style:normal;font-variant:normal;font-weight:900;font-stretch:normal;text-align:start;line-height:125%;letter-spacing:0px;word-spacing:0px;writing-mode:lr-tb;text-anchor:start;fill:#000000;fill-opacity:1;stroke:none;font-family:Chivo;-inkscape-font-specification:Chivo Heavy"
           d="m 941.27569,530.30621 0,-23.83089 18.0096,0 0,65.48947 -14.3713,0 -1.63724,-5.3665 c -1.27345,1.57659 -2.85004,3.03191 -4.72979,4.36596 -1.87982,1.27341 -4.21441,1.91011 -7.00374,1.91011 -2.72875,0 -5.30587,-0.48512 -7.73139,-1.45532 -2.42555,-0.97022 -4.51757,-2.42554 -6.27608,-4.36596 -3.88086,-4.2447 -5.82128,-10.18725 -5.82128,-17.82769 l 0,-1.00054 c 0,-7.64041 1.69786,-13.55266 5.09362,-17.73673 3.21383,-3.94146 7.48884,-5.9122 12.82502,-5.91224 5.39679,4e-5 9.27766,1.91015 11.64258,5.73033 m -11.27875,25.19525 c -2e-5,1.75853 0.54573,3.27448 1.63724,4.54788 1.09147,1.21279 2.4255,1.81915 4.00213,1.81915 1.57657,0 2.91062,-0.60636 4.00214,-1.81915 1.09147,-1.2734 1.63721,-2.78935 1.63724,-4.54788 l 0,-13.18885 c -3e-5,-1.75848 -0.54577,-3.24414 -1.63724,-4.45692 -1.09152,-1.27339 -2.42557,-1.91009 -4.00214,-1.91011 -1.57663,2e-5 -2.91066,0.63672 -4.00213,1.91011 -1.09151,1.21278 -1.63726,2.69844 -1.63724,4.45692 l 0,13.18885" />
        <path
           inkscape:connector-curvature="0"
           id="path34106"
           style="font-size:40px;font-style:normal;font-variant:normal;font-weight:900;font-stretch:normal;text-align:start;line-height:125%;letter-spacing:0px;word-spacing:0px;writing-mode:lr-tb;text-anchor:start;fill:#000000;fill-opacity:1;stroke:none;font-family:Chivo;-inkscape-font-specification:Chivo Heavy"
           d="m 968.2913,554.1371 0,-14.3713 23.10323,0 0,14.3713 -23.10323,0" />
        <path
           inkscape:connector-curvature="0"
           id="path34108"
           style="font-size:40px;font-style:normal;font-variant:normal;font-weight:900;font-stretch:normal;text-align:start;line-height:125%;letter-spacing:0px;word-spacing:0px;writing-mode:lr-tb;text-anchor:start;fill:#000000;fill-opacity:1;stroke:none;font-family:Chivo;-inkscape-font-specification:Chivo Heavy"
           d="m 993.85323,509.56787 19.73777,0 8.8229,34.65485 0.3638,0 8.9139,-34.65485 19.5559,0 8.7319,34.65485 0.3638,0 8.8229,-34.65485 17.9187,0 -16.9181,62.39692 -21.648,0 -7.5494,-29.92505 -0.5458,0 -7.5495,29.92505 -22.0117,0 -17.00907,-62.39692" />
        <path
           inkscape:connector-curvature="0"
           id="path34110"
           style="font-size:40px;font-style:normal;font-variant:normal;font-weight:900;font-stretch:normal;text-align:start;line-height:125%;letter-spacing:0px;word-spacing:0px;writing-mode:lr-tb;text-anchor:start;fill:#000000;fill-opacity:1;stroke:none;font-family:Chivo;-inkscape-font-specification:Chivo Heavy"
           d="m 1089.3602,571.96479 0,-46.47934 13.4617,0 2.0011,6.73087 c 1.4553,-2.84998 3.8808,-5.06327 7.2766,-6.63991 1.4553,-0.66699 3.1228,-1.00049 5.0027,-1.00053 4.0627,4e-5 7.1856,1.12185 9.3686,3.36543 2.1829,2.24365 3.2744,5.27556 3.2745,9.09576 l 0,1.54628 c -10e-5,0.97024 -0.061,2.12236 -0.182,3.45639 l -0.1819,2.27394 -14.7351,0 0,-2.18299 c 0,-1.27338 -0.3942,-2.33456 -1.1825,-3.18351 -0.7276,-0.90955 -1.6372,-1.36434 -2.7287,-1.36437 -1.0308,3e-5 -1.9404,0.45482 -2.7287,1.36437 -0.7277,0.84895 -1.0915,1.91013 -1.0915,3.18351 l 0,29.8341 -17.5548,0" />
        <path
           inkscape:connector-curvature="0"
           id="path34112"
           style="font-size:40px;font-style:normal;font-variant:normal;font-weight:900;font-stretch:normal;text-align:start;line-height:125%;letter-spacing:0px;word-spacing:0px;writing-mode:lr-tb;text-anchor:start;fill:#000000;fill-opacity:1;stroke:none;font-family:Chivo;-inkscape-font-specification:Chivo Heavy"
           d="m 1135.3858,571.96479 0,-46.38838 17.9187,0 0,46.38838 -17.9187,0 m 0,-52.48254 0,-13.00693 17.9187,0 0,13.00693 -17.9187,0" />
        <path
           inkscape:connector-curvature="0"
           id="path34114"
           style="font-size:40px;font-style:normal;font-variant:normal;font-weight:900;font-stretch:normal;text-align:start;line-height:125%;letter-spacing:0px;word-spacing:0px;writing-mode:lr-tb;text-anchor:start;fill:#000000;fill-opacity:1;stroke:none;font-family:Chivo;-inkscape-font-specification:Chivo Heavy"
           d="m 1188.2319,561.86849 c 2.0011,0 3.8808,-0.36383 5.6394,-1.09149 l 0,10.18725 c -3.2139,1.33403 -7.2766,2.00107 -12.1883,2.00107 -8.0649,0 -13.2192,-2.21332 -15.4628,-6.6399 -0.7883,-1.63724 -1.1825,-3.69895 -1.1825,-6.18512 l 0,-21.73887 -5.0936,0 0,-12.91598 5.8213,0 6.2761,-14.82608 11.0058,0 0,14.82608 10.9149,0 0,12.91598 -10.9149,0 0,17.19099 c 0,3.51703 1.0915,5.5181 3.2745,6.0032 0.6064,0.18192 1.2431,0.27287 1.9101,0.27287" />
        <path
           inkscape:connector-curvature="0"
           id="path34116"
           style="font-size:40px;font-style:normal;font-variant:normal;font-weight:900;font-stretch:normal;text-align:start;line-height:125%;letter-spacing:0px;word-spacing:0px;writing-mode:lr-tb;text-anchor:start;fill:#000000;fill-opacity:1;stroke:none;font-family:Chivo;-inkscape-font-specification:Chivo Heavy"
           d="m 1198.4198,550.13496 0,-2.81968 c 0,-7.09467 2.3345,-12.70371 7.0037,-16.82716 4.4266,-3.94146 10.3691,-5.9122 17.8277,-5.91224 l 2.2739,0 c 7.034,4e-5 12.5824,1.97078 16.6453,5.91224 3.8808,3.82024 5.8212,8.82291 5.8212,15.00801 l 0,5.63937 -30.2888,0 0,4.36596 c -10e-5,2.12236 0.667,3.72926 2.001,4.82075 1.3947,1.03087 3.1229,1.54628 5.1846,1.54628 2.0617,0 3.6383,-0.66701 4.7298,-2.00106 1.0915,-1.33403 1.6372,-3.12287 1.6372,-5.3665 l 16.6453,0 c -10e-5,5.33619 -1.9708,9.70215 -5.9123,13.09789 -4.1234,3.51701 -9.7022,5.27554 -16.7362,5.27554 l -1.3643,0 c -7.4586,0 -13.4921,-1.97075 -18.1006,-5.91224 -4.9117,-4.18405 -7.3675,-9.79309 -7.3675,-16.82716 m 19.283,-6.91277 12.5521,0 0,-1.27341 c 0,-1.75848 -0.6064,-3.24412 -1.8191,-4.45692 -1.2128,-1.27339 -2.6985,-1.91009 -4.457,-1.91011 -1.7585,2e-5 -3.2441,0.63672 -4.4569,1.91011 -1.2128,1.2128 -1.8192,2.69844 -1.8191,4.45692 l 0,1.27341" />
        <path
           inkscape:connector-curvature="0"
           id="path34118"
           style="font-size:40px;font-style:normal;font-variant:normal;font-weight:900;font-stretch:normal;text-align:start;line-height:125%;letter-spacing:0px;word-spacing:0px;writing-mode:lr-tb;text-anchor:start;fill:#000000;fill-opacity:1;stroke:none;font-family:Chivo;-inkscape-font-specification:Chivo Heavy"
           d="m 1267.9113,509.56787 19.7378,0 8.8229,34.65485 0.3638,0 8.9139,-34.65485 19.5558,0 8.732,34.65485 0.3638,0 8.8229,-34.65485 17.9186,0 -16.9181,62.39692 -21.6479,0 -7.5495,-29.92505 -0.5457,0 -7.5495,29.92505 -22.0117,0 -17.0091,-62.39692" />
        <path
           inkscape:connector-curvature="0"
           id="path34120"
           style="font-size:40px;font-style:normal;font-variant:normal;font-weight:900;font-stretch:normal;text-align:start;line-height:125%;letter-spacing:0px;word-spacing:0px;writing-mode:lr-tb;text-anchor:start;fill:#000000;fill-opacity:1;stroke:none;font-family:Chivo;-inkscape-font-specification:Chivo Heavy"
           d="m 1360.0528,549.68018 0,-1.91011 c 0,-6.79149 2.3042,-12.37022 6.9128,-16.7362 4.4872,-4.3053 10.2175,-6.45795 17.1909,-6.45799 l 2.9107,0 c 6.9734,4e-5 12.7037,2.15269 17.191,6.45799 4.6084,4.36598 6.9127,9.94471 6.9127,16.7362 l 0,1.91011 c 0,6.85215 -2.3043,12.46119 -6.9127,16.82715 -4.4873,4.24467 -10.2176,6.36703 -17.191,6.36703 l -2.9107,0 c -6.9734,0 -12.7037,-2.15267 -17.1909,-6.45799 -4.6086,-4.36596 -6.9128,-9.94469 -6.9128,-16.73619 m 19.283,5.82128 c 0,1.75853 0.6064,3.27448 1.8191,4.54788 1.2128,1.21279 2.6984,1.81915 4.457,1.81915 1.7584,0 3.2441,-0.60636 4.4569,-1.81915 1.2127,-1.2734 1.8191,-2.78935 1.8191,-4.54788 l 0,-13.55268 c 0,-1.75848 -0.6064,-3.24412 -1.8191,-4.45692 -1.2128,-1.27339 -2.6985,-1.91009 -4.4569,-1.91011 -1.7586,2e-5 -3.2442,0.63672 -4.457,1.91011 -1.2127,1.2128 -1.8191,2.69844 -1.8191,4.45692 l 0,13.55268" />
        <path
           inkscape:connector-curvature="0"
           id="path34122"
           style="font-size:40px;font-style:normal;font-variant:normal;font-weight:900;font-stretch:normal;text-align:start;line-height:125%;letter-spacing:0px;word-spacing:0px;writing-mode:lr-tb;text-anchor:start;fill:#000000;fill-opacity:1;stroke:none;font-family:Chivo;-inkscape-font-specification:Chivo Heavy"
           d="m 1418.085,571.96479 0,-46.47934 13.4617,0 2.0011,6.73087 c 1.4553,-2.84998 3.8808,-5.06327 7.2766,-6.63991 1.4553,-0.66699 3.1228,-1.00049 5.0026,-1.00053 4.0628,4e-5 7.1856,1.12185 9.3687,3.36543 2.1829,2.24365 3.2744,5.27556 3.2744,9.09576 l 0,1.54628 c 0,0.97024 -0.061,2.12236 -0.1819,3.45639 l -0.1819,2.27394 -14.7351,0 0,-2.18299 c 0,-1.27338 -0.3942,-2.33456 -1.1825,-3.18351 -0.7276,-0.90955 -1.6372,-1.36434 -2.7287,-1.36437 -1.0309,3e-5 -1.9405,0.45482 -2.7287,1.36437 -0.7277,0.84895 -1.0915,1.91013 -1.0915,3.18351 l 0,29.8341 -17.5548,0" />
        <path
           inkscape:connector-curvature="0"
           id="path34124"
           style="font-size:40px;font-style:normal;font-variant:normal;font-weight:900;font-stretch:normal;text-align:start;line-height:125%;letter-spacing:0px;word-spacing:0px;writing-mode:lr-tb;text-anchor:start;fill:#000000;fill-opacity:1;stroke:none;font-family:Chivo;-inkscape-font-specification:Chivo Heavy"
           d="m 1464.1106,571.96479 0,-65.48947 18.0096,0 0,65.48947 -18.0096,0" />
        <path
           inkscape:connector-curvature="0"
           id="path34126"
           style="font-size:40px;font-style:normal;font-variant:normal;font-weight:900;font-stretch:normal;text-align:start;line-height:125%;letter-spacing:0px;word-spacing:0px;writing-mode:lr-tb;text-anchor:start;fill:#000000;fill-opacity:1;stroke:none;font-family:Chivo;-inkscape-font-specification:Chivo Heavy"
           d="m 1518.7765,530.30621 0,-23.83089 18.0096,0 0,65.48947 -14.3713,0 -1.6372,-5.3665 c -1.2735,1.57659 -2.8501,3.03191 -4.7298,4.36596 -1.8799,1.27341 -4.2144,1.91011 -7.0038,1.91011 -2.7287,0 -5.3058,-0.48512 -7.7314,-1.45532 -2.4255,-0.97022 -4.5175,-2.42554 -6.276,-4.36596 -3.8809,-4.2447 -5.8213,-10.18725 -5.8213,-17.82769 l 0,-1.00054 c 0,-7.64041 1.6979,-13.55266 5.0936,-17.73673 3.2138,-3.94146 7.4888,-5.9122 12.825,-5.91224 5.3968,4e-5 9.2777,1.91015 11.6426,5.73033 m -11.2787,25.19525 c -1e-4,1.75853 0.5457,3.27448 1.6372,4.54788 1.0915,1.21279 2.4255,1.81915 4.0021,1.81915 1.5766,0 2.9106,-0.60636 4.0022,-1.81915 1.0914,-1.2734 1.6372,-2.78935 1.6372,-4.54788 l 0,-13.18885 c 0,-1.75848 -0.5458,-3.24414 -1.6372,-4.45692 -1.0916,-1.27339 -2.4256,-1.91009 -4.0022,-1.91011 -1.5766,2e-5 -2.9106,0.63672 -4.0021,1.91011 -1.0915,1.21278 -1.6373,2.69844 -1.6372,4.45692 l 0,13.18885" />
      </g>
    </g>
    <path
       inkscape:connector-curvature="0"
       style="fill:none;stroke:#000000;stroke-width:1.86203015"
       d=""
       id="path44352" />
    <path
       inkscape:connector-curvature="0"
       style="fill:none;stroke:#000000;stroke-width:1.86203015"
       d=""
       id="path44364" />
    <path
       inkscape:connector-curvature="0"
       style="fill:none;stroke:#000000;stroke-width:1.86203015"
       d=""
       id="path44372" />
    <path
       inkscape:connector-curvature="0"
       style="fill:none;stroke:#000000;stroke-width:1.86203015"
       d=""
       id="path44376" />
    <path
       inkscape:connector-curvature="0"
       style="fill:none;stroke:#000000;stroke-width:1.86203015"
       d=""
       id="path44398" />
    <path
       id="path45931"
       d="m 1168.9411,1215.9103 -79.6201,79.6017 0,-64.6812 -3.5262,-3.5263 -3.5263,3.5263 0,71.7337 -3.5263,3.5226 0,-75.2563 -3.5262,-3.5263 -3.5264,3.5263 0,82.3089 -0.059,0.059 0,9.9837 0.059,-0.059 0,4.9882 0,1.4546 0,3.5263 3.5264,0 1.1753,0 0.2792,0 104.7301,-104.7081 0,-5.0028 -4.9809,0 -97.6775,97.6775 0,-4.9882 95.1798,-95.1798 0,-4.9808 -4.9809,0 z"
       style="fill:none;stroke:#000000;stroke-opacity:1;display:inline"
       inkscape:connector-curvature="0" />
    <path
       id="path45933"
       d="m 249.09928,1227.3045 -3.52626,3.5263 3.52626,3.5262 81.1041,0 0,3.5263 -81.1041,0 -3.52626,3.5263 0,88.1566 3.52626,3.5262 3.52627,-3.5262 0,-84.6304 3.52627,0 0,84.6304 3.52626,3.5262 3.52626,-3.5262 0,-84.6304 56.42024,0 0,84.6304 3.52626,3.5262 3.52627,-3.5262 0,-84.6304 3.52627,0 0,84.6304 3.52626,3.5262 3.52626,-3.5262 0,-98.7354 -3.52626,-3.5263 -84.63036,0 z"
       style="fill:none;stroke:#000000;stroke-opacity:1;display:inline"
       inkscape:connector-curvature="0" />
    <path
       inkscape:connector-curvature="0"
       id="path45935"
       d="m 704.4434,1227.3045 -3.52626,3.5263 3.52626,3.5262 81.1041,0 0,3.5263 -81.1041,0 -3.52626,3.5263 0,88.1566 3.52626,3.5262 3.52627,-3.5262 0,-84.6304 3.52627,0 0,84.6304 3.52626,3.5262 3.52627,-3.5262 0,-84.6304 56.42023,0 0,84.6304 3.52626,3.5262 3.52627,-3.5262 0,-84.6304 3.52627,0 0,84.6304 3.52626,3.5262 3.52626,-3.5262 0,-98.7354 -3.52626,-3.5263 -84.63036,0 z m 21.15759,49.3677 -3.52626,3.5263 3.52626,3.5262 42.31518,0 3.52626,-3.5262 -3.52626,-3.5263 -42.31518,0 z m 0,10.5788 -3.52626,3.5263 3.52626,3.5262 42.31518,0 3.52626,-3.5262 -3.52626,-3.5263 -42.31518,0 z"
       style="fill:none;stroke:#000000;stroke-opacity:1;display:inline" />
    <path
       inkscape:connector-curvature="0"
       id="path45937"
       d="m 811.22689,1227.3045 -3.52627,3.5263 3.52627,3.5262 84.63033,0 3.52623,-3.5262 -3.52623,-3.5263 -84.63033,0 z m 0,10.5788 -3.52627,3.5263 0,88.1566 3.52627,3.5262 84.63033,0 3.52623,-3.5262 -3.52623,-3.5263 -81.10407,0 0,-81.1041 3.52627,0 0,77.5779 77.5778,0 3.52623,-3.5263 -3.52623,-3.5263 -70.52528,0 0,-70.5253 70.52528,0 3.52623,-3.5262 -3.52623,-3.5263 -84.63033,0 z"
       style="fill:none;stroke:#000000;stroke-opacity:1;display:inline" />
    <path
       inkscape:connector-curvature="0"
       id="path45939"
       d="m 480.29763,1227.3045 -3.52627,3.5263 3.52627,3.5262 84.63035,0 3.52626,-3.5262 -3.52626,-3.5263 -84.63035,0 z m 0,10.5788 -3.52627,3.5263 0,88.1566 3.52627,3.5262 84.63035,0 3.52626,-3.5262 -3.52626,-3.5263 -81.10408,0 0,-81.1041 3.52626,0 0,77.5779 77.57782,0 3.52626,-3.5263 -3.52626,-3.5263 -70.5253,0 0,-21.1576 45.84145,0 3.52626,-3.5262 -3.52626,-3.5263 -45.84145,0 0,-3.5263 45.84145,0 3.52626,-3.5262 -3.52626,-3.5263 -45.84145,0 0,-31.7364 70.5253,0 3.52626,-3.5262 -3.52626,-3.5263 -84.63035,0 z"
       style="fill:none;stroke:#000000;stroke-opacity:1;display:inline" />
    <path
       inkscape:connector-curvature="0"
       id="path45941"
       d="m 216.36735,1227.3045 -3.52626,3.5263 0,98.7354 3.52626,3.5262 3.52627,-3.5262 0,-98.7354 -3.52627,-3.5263 z m 10.5788,0 -3.52626,3.5263 0,98.7354 3.52626,3.5262 3.52626,-3.5262 0,-98.7354 -3.52626,-3.5263 z"
       style="color:#000000;fill:none;stroke:#000000;stroke-width:1px;stroke-opacity:1;marker:none;visibility:visible;display:inline;overflow:visible;enable-background:accumulate" />
    <path
       id="path45943"
       d="m 1191.987,1227.3045 -3.5263,3.5263 3.5263,3.5262 81.1041,0 0,81.1041 -3.5263,0 0,-77.5778 -77.5778,0 -3.5263,3.5263 3.5263,3.5262 70.5253,0 0,70.5253 -56.4202,0 0,-63.4727 -3.5263,-3.5263 -3.5262,3.5263 0,63.4727 -3.5263,0 0,-63.4727 -3.5263,-3.5263 -3.5263,3.5263 0,66.999 3.5263,3.5263 84.6304,0 3.5263,-3.5263 0,-88.1566 -3.5263,-3.5263 -84.6304,0 z m 0,98.7354 -3.5263,3.5263 3.5263,3.5262 84.6304,0 3.5263,-3.5262 -3.5263,-3.5263 -84.6304,0 z"
       style="fill:none;stroke:#000000;stroke-opacity:1;display:inline"
       inkscape:connector-curvature="0" />
    <path
       inkscape:connector-curvature="0"
       id="path45945"
       d="m 587.08111,1227.3045 -3.52626,3.5263 3.52626,3.5262 81.10408,0 0,52.894 -74.05156,0 0,42.3152 3.52627,3.5262 3.52627,-3.5262 0,-35.2627 30.6785,0 38.67871,66.9991 4.82658,1.3003 1.27827,-4.8266 -36.65111,-63.4728 4.07724,0 35.63731,61.7097 4.80454,1.3003 1.3003,-4.8266 -33.6097,-58.1834 19.50465,0 3.52627,-3.5262 0,-59.9465 -3.52627,-3.5263 -84.63035,0 z m 0,10.5788 -3.52626,3.5263 0,88.1566 3.52626,3.5262 3.52626,-3.5262 0,-84.6304 66.99903,0 0,31.7364 -56.42023,0 0,-24.6838 -3.52627,-3.5263 -3.52627,3.5263 0,31.7364 70.5253,0 0,-45.8415 -77.57782,0 z"
       style="fill:none;stroke:#000000;stroke-opacity:1;display:inline" />
    <path
       inkscape:connector-curvature="0"
       id="path45947"
       d="m 1319.9281,1227.3045 -3.5262,3.5263 0,52.894 3.5262,3.5262 49.3678,0 0,28.2101 -56.4202,0 0,-24.6838 -3.5263,-3.5263 -3.5263,3.5263 0,31.7364 70.5253,0 0,-42.3152 -52.8939,0 0,-45.8415 77.5777,0 0,35.2627 3.5264,3.5263 3.5262,-3.5263 0,-38.7889 -3.5262,-3.5263 -84.6305,0 z m 7.0526,10.5788 0,38.7889 52.894,0 0,49.3677 -77.5779,0 0,-35.2626 -3.5262,-3.5263 -3.5263,3.5263 0,38.7889 3.5263,3.5262 84.6303,0 3.5263,-3.5262 0,-56.4202 -3.5263,-3.5263 -49.3677,0 0,-24.6839 56.4203,0 0,24.6839 3.5262,3.5263 3.5263,-3.5263 0,-31.7364 -70.5253,0 z"
       style="fill:none;stroke:#000000;stroke-opacity:1;display:inline" />
    <path
       id="path45949"
       d="m 355.88278,1227.3045 -3.52626,3.5263 3.52626,3.5262 42.31518,0 0,3.5263 -42.31518,0 -3.52626,3.5263 3.52626,3.5262 42.31518,0 0,81.1041 3.52627,3.5263 3.52626,-3.5263 0,-95.2091 -3.52626,-3.5263 -45.84145,0 z m 56.42024,0 -3.52627,3.5263 0,95.2091 3.52627,3.5263 3.52626,-3.5263 0,-81.1041 42.31518,0 3.52626,-3.5262 -3.52626,-3.5263 -42.31518,0 0,-3.5263 42.31518,0 3.52626,-3.5262 -3.52626,-3.5263 -45.84144,0 z"
       style="fill:none;stroke:#000000;stroke-opacity:1;display:inline"
       inkscape:connector-curvature="0" />
    <path
       inkscape:connector-curvature="0"
       style="fill:none;stroke:#000000;stroke-opacity:1;display:inline"
       d="m 918.01038,1227.3045 -3.52631,3.5263 3.52631,3.5262 42.31517,0 0,3.5263 -42.31517,0 -3.52631,3.5263 3.52631,3.5262 42.31517,0 0,81.1041 3.52623,3.5263 3.52631,-3.5263 0,-95.2091 -3.52631,-3.5263 -45.8414,0 z m 56.42025,0 -3.52631,3.5263 0,95.2091 3.52631,3.5263 3.52623,-3.5263 0,-81.1041 42.31514,0 3.5264,-3.5262 -3.5264,-3.5263 -42.31514,0 0,-3.5263 42.31514,0 3.5264,-3.5262 -3.5264,-3.5263 -45.84137,0 z"
       id="path45951" />
    <path
       style="color:#000000;fill:none;stroke:#000000;stroke-width:1px;stroke-opacity:1;marker:none;visibility:visible;display:inline;overflow:visible;enable-background:accumulate"
       d="m 1042.4252,1227.3045 -3.5263,3.5263 0,98.7354 3.5263,3.5262 3.5262,-3.5262 0,-98.7354 -3.5262,-3.5263 z m 10.5788,0 -3.5263,3.5263 0,98.7354 3.5263,3.5262 3.5262,-3.5262 0,-98.7354 -3.5262,-3.5263 z"
       id="path45953"
       inkscape:connector-curvature="0" />
    <path
       id="path53792"
       d=""
       style="fill:none;stroke:#000000"
       inkscape:connector-curvature="0" />
    <path
       id="path53804"
       d=""
       style="fill:none;stroke:#000000"
       inkscape:connector-curvature="0" />
    <path
       id="path53812"
       d=""
       style="fill:none;stroke:#000000"
       inkscape:connector-curvature="0" />
    <path
       id="path53816"
       d=""
       style="fill:none;stroke:#000000"
       inkscape:connector-curvature="0" />
    <path
       id="path53838"
       d=""
       style="fill:none;stroke:#000000"
       inkscape:connector-curvature="0" />
    <g
       id="g46028"
       transform="matrix(2.3918015,0,0,2.3918015,50.429652,-454.45606)">
      <path
         id="path44320"
         d="m 71.229186,374.50416 3.72406,-3.72406 5.586091,0 5.58609,1.86203 3.724061,-1.86203 m -13.034212,1.86203 7.448121,0 m -13.034211,1.86203 3.72406,-1.86203 5.586091,1.86203 5.58609,0 3.724061,-3.72406 m -5.586091,9.31015 -1.86203,1.86203 -1.86203,3.72406 0,1.86203 -3.724061,0 -1.86203,1.86203 0,3.72406 1.86203,-1.86203 3.724061,0 0,9.31015 m 1.86203,-16.75827 0,13.03421 m -5.586091,-7.44812 5.586091,0 m 1.86203,-9.31015 0,14.89624 -1.86203,3.72406 -1.86203,1.86203 m 14.896241,-26.06842 -3.72406,3.72406 -1.86203,5.58609 0,20.48233 -1.86203,3.72406 -3.724061,0 -7.448121,-3.72406 -3.72406,0 -3.72406,1.86203 -3.724061,3.72406 m 26.068423,-29.79248 0,22.34436 m -9.310151,5.58609 -1.86203,0 -3.724061,-1.86203 -5.58609,0 m 24.206392,-31.65451 -1.86203,3.72406 0,22.34436 -1.86203,3.72406 -3.72406,3.72406 -3.724061,1.86203 -5.58609,0 -3.724061,-1.86203 -5.58609,0 -3.724061,1.86203"
         style="fill:none;stroke:#000000;stroke-width:1.86203015"
         inkscape:connector-curvature="0" />
      <path
         id="path44322"
         d="m 104.74573,387.53837 1.86203,0 1.86203,1.86203 0,14.89624 -3.72406,1.86203 1.86203,0 3.72406,1.86203 1.86203,1.86203 m -3.72406,-24.20639 1.86203,1.86203 0,18.6203 3.72406,1.86203 m -9.31015,-20.48233 3.72406,-3.72406 3.72406,3.72406 0,16.75827 3.72406,1.86203 -3.72406,3.72406 m 0,-20.48233 5.58609,-1.86203 3.72406,-1.86203 1.86203,-1.86203 1.86203,1.86203 3.72406,1.86203 1.86203,0 -3.72406,1.86203 0,14.89624 1.86203,1.86203 1.86203,0 m -9.31015,-20.48233 3.72406,1.86203 0,18.6203 1.86203,1.86203 m -9.31015,-20.48233 1.86203,0 3.72406,1.86203 0,16.75827 3.72406,3.72406 3.72406,-3.72406"
         style="fill:none;stroke:#000000;stroke-width:1.86203015"
         inkscape:connector-curvature="0" />
      <path
         id="path44324"
         d="m 140.1243,374.50416 1.86203,3.72406 0,26.06842 -3.72406,1.86203 1.86203,0 3.72406,1.86203 1.86203,1.86203 m -1.86203,-31.65451 -1.86203,-3.72406 1.86203,-1.86203 0,33.51654 3.72406,1.86203 m -7.44812,-33.51654 5.58609,-3.72406 0,33.51654 3.72406,1.86203 1.86203,0 -3.72406,1.86203 -1.86203,1.86203 m -9.31015,-26.06842 5.58609,0 m 3.72406,0 5.58609,0"
         style="fill:none;stroke:#000000;stroke-width:1.86203015"
         inkscape:connector-curvature="0" />
      <path
         id="path44326"
         d="m 160.60664,387.53837 0,16.75827 -3.72406,1.86203 1.86203,0 3.72406,1.86203 1.86203,1.86203 m -1.86203,-22.34436 0,18.6203 3.72406,1.86203 m -1.86203,-20.48233 0,16.75827 3.72406,1.86203 1.86203,0 -3.72406,1.86203 -1.86203,1.86203 m -3.72406,-22.34436 7.44812,-1.86203 3.72406,-1.86203 5.58609,7.44812 -3.72406,1.86203 -9.31015,5.58609 m 5.58609,-13.03421 5.58609,5.58609 m -11.17218,-3.72406 3.72406,-1.86203 5.58609,7.44812"
         style="fill:none;stroke:#000000;stroke-width:1.86203015"
         inkscape:connector-curvature="0" />
      <path
         id="path44328"
         d="m 182.951,387.53837 1.86203,0 1.86203,1.86203 0,14.89624 -3.72406,1.86203 1.86203,0 3.72406,1.86203 1.86203,1.86203 m -5.58609,-24.20639 3.72406,1.86203 0,18.6203 3.72406,1.86203 m -9.31015,-20.48233 3.72406,-3.72406 3.72406,3.72406 0,16.75827 3.72406,1.86203 1.86203,0 -3.72406,1.86203 -1.86203,1.86203 m 0,-22.34436 7.44812,-3.72406 1.86203,1.86203 3.72406,1.86203 1.86203,0 m -9.31015,-1.86203 1.86203,1.86203 3.72406,0 m -7.44812,-1.86203 3.72406,3.72406 3.72406,0 3.72406,-1.86203"
         style="fill:none;stroke:#000000;stroke-width:1.86203015"
         inkscape:connector-curvature="0" />
      <path
         id="path44330"
         d="m 216.46754,393.12446 -3.72406,3.72406 -1.86203,3.72406 0,3.72406 1.86203,3.72406 3.72406,1.86203 3.72406,-3.72406 5.58609,-1.86203 m -14.89624,-3.72406 1.86203,3.72406 1.86203,1.86203 3.72406,1.86203 m -5.58609,-11.17218 0,3.72406 1.86203,3.72406 3.72406,1.86203 1.86203,0 m -7.44812,-16.75827 3.72406,0 5.58609,-1.86203 3.72406,-1.86203 1.86203,-1.86203 3.72406,3.72406 -1.86203,1.86203 0,14.89624 1.86203,1.86203 1.86203,0 m -18.6203,-20.48233 -1.86203,1.86203 5.58609,0 m 5.58609,0 5.58609,0 -1.86203,-1.86203 0,20.48233 1.86203,1.86203 m -18.6203,-20.48233 3.72406,-3.72406 1.86203,1.86203 3.72406,1.86203 5.58609,1.86203 0,16.75827 3.72406,3.72406 3.72406,-3.72406 m -22.34436,-18.6203 9.31015,9.31015"
         style="fill:none;stroke:#000000;stroke-width:1.86203015"
         inkscape:connector-curvature="0" />
      <path
         id="path44332"
         d="m 244.398,387.53837 0,16.75827 -3.72406,1.86203 1.86203,0 3.72406,1.86203 1.86203,1.86203 m -1.86203,-22.34436 0,18.6203 3.72406,1.86203 m -1.86203,-20.48233 0,16.75827 3.72406,1.86203 1.86203,0 -3.72406,1.86203 -1.86203,1.86203 m -3.72406,-22.34436 7.44812,-1.86203 3.72406,-1.86203 1.86203,1.86203 3.72406,1.86203 1.86203,0 m -9.31015,-1.86203 1.86203,1.86203 3.72406,0 m -11.17218,0 3.72406,-1.86203 3.72406,3.72406 3.72406,0 3.72406,-1.86203"
         style="fill:none;stroke:#000000;stroke-width:1.86203015"
         inkscape:connector-curvature="0" />
      <path
         id="path44334"
         d="m 268.60439,374.50416 1.86203,3.72406 0,26.06842 -3.72406,1.86203 1.86203,0 3.72406,1.86203 1.86203,1.86203 m -1.86203,-31.65451 -1.86203,-3.72406 1.86203,-1.86203 0,33.51654 3.72406,1.86203 m -7.44812,-33.51654 5.58609,-3.72406 0,33.51654 3.72406,1.86203 1.86203,0 -3.72406,1.86203 -1.86203,1.86203 m -9.31015,-26.06842 5.58609,0 m 3.72406,0 5.58609,0"
         style="fill:none;stroke:#000000;stroke-width:1.86203015"
         inkscape:connector-curvature="0" />
      <path
         id="path44336"
         d="m 290.94875,370.7801 -3.72406,3.72406 3.72406,1.86203 3.72406,-1.86203 -3.72406,-3.72406 m 0,1.86203 -1.86203,1.86203 3.72406,0 -1.86203,-1.86203 m 0,11.17218 -1.86203,1.86203 -3.72406,1.86203 3.72406,1.86203 0,16.75827 3.72406,3.72406 3.72406,-3.72406 m -5.58609,-16.75827 1.86203,-1.86203 -1.86203,-1.86203 -1.86203,1.86203 1.86203,1.86203 0,16.75827 1.86203,1.86203 m -1.86203,-24.20639 1.86203,1.86203 3.72406,1.86203 -3.72406,1.86203 0,14.89624 1.86203,1.86203 1.86203,0"
         style="fill:none;stroke:#000000;stroke-width:1.86203015"
         inkscape:connector-curvature="0" />
      <path
         id="path44338"
         d="m 305.84499,383.81431 1.86203,3.72406 0,16.75827 5.58609,5.58609 3.72406,-3.72406 5.58609,-1.86203 3.72406,0 m -18.6203,-18.6203 1.86203,1.86203 0,16.75827 5.58609,3.72406 m -9.31015,-24.20639 3.72406,1.86203 1.86203,1.86203 0,14.89624 1.86203,1.86203 3.72406,1.86203 m 5.58609,-22.34436 1.86203,1.86203 3.72406,1.86203 1.86203,0 -3.72406,1.86203 0,14.89624 m -5.58609,-18.6203 3.72406,1.86203 0,14.89624 m -1.86203,-18.6203 -3.72406,3.72406 3.72406,1.86203 0,14.89624"
         style="fill:none;stroke:#000000;stroke-width:1.86203015"
         inkscape:connector-curvature="0" />
      <path
         id="path44340"
         d="m 341.22357,387.53837 0,16.75827 -3.72406,1.86203 m 5.58609,-16.75827 0,14.89624 5.58609,3.72406 m -3.72406,-20.48233 0,16.75827 3.72406,1.86203 1.86203,1.86203 m -13.03421,-1.86203 3.72406,0 3.72406,1.86203 1.86203,1.86203 3.72406,-1.86203 5.58609,-1.86203 3.72406,0 m -18.6203,-18.6203 3.72406,0 5.58609,-1.86203 3.72406,-1.86203 1.86203,1.86203 3.72406,1.86203 3.72406,0 -3.72406,1.86203 0,16.75827 m -7.44812,-20.48233 5.58609,3.72406 0,14.89624 m -7.44812,-18.6203 1.86203,1.86203 3.72406,1.86203 0,16.75827"
         style="fill:none;stroke:#000000;stroke-width:1.86203015"
         inkscape:connector-curvature="0" />
      <path
         id="path44342"
         d="m 372.87808,387.53837 0,7.44812 3.72406,1.86203 11.17218,0 3.72406,1.86203 0,7.44812 m -16.75827,-18.6203 0,7.44812 m 14.89624,3.72406 0,7.44812 m -11.17218,-20.48233 -1.86203,1.86203 0,7.44812 3.72406,1.86203 m 3.72406,0 3.72406,1.86203 0,7.44812 -1.86203,1.86203 m -13.03421,-20.48233 5.58609,-1.86203 3.72406,-1.86203 3.72406,1.86203 3.72406,0 1.86203,-1.86203 m -11.17218,1.86203 3.72406,0 m -5.58609,0 3.72406,1.86203 3.72406,0 3.72406,-1.86203 m 1.86203,20.48233 -5.58609,1.86203 -3.72406,1.86203 -3.72406,-1.86203 -3.72406,0 -3.72406,1.86203 m 13.03421,-1.86203 -3.72406,0 m 5.58609,0 -3.72406,-1.86203 -5.58609,0 -5.58609,3.72406 m 20.48233,-26.06842 -1.86203,3.72406 -3.72406,5.58609 -9.31015,9.31015 -5.58609,7.44812"
         style="fill:none;stroke:#000000;stroke-width:1.86203015"
         inkscape:connector-curvature="0" />
      <path
         id="path44344"
         d="m 402.67056,378.22822 1.86203,-3.72406 1.86203,-1.86203 5.58609,-1.86203 3.72406,0 5.58609,1.86203 1.86203,1.86203 1.86203,3.72406 0,3.72406 -1.86203,3.72406 -3.72406,3.72406 -3.72406,1.86203 m -11.17218,-13.03421 1.86203,-3.72406 m 14.89624,0 1.86203,1.86203 0,7.44812 -1.86203,1.86203 m -18.6203,-7.44812 3.72406,1.86203 0,-3.72406 1.86203,-3.72406 3.72406,-1.86203 m 3.72406,0 3.72406,1.86203 1.86203,3.72406 0,7.44812 -1.86203,3.72406 -3.72406,3.72406 m -1.86203,0 0,5.58609 1.86203,-5.58609 -3.72406,0 1.86203,5.58609 m 0,7.44812 -3.72406,3.72406 3.72406,1.86203 3.72406,-1.86203 -3.72406,-3.72406 m 0,1.86203 -1.86203,1.86203 3.72406,0 -1.86203,-1.86203"
         style="fill:none;stroke:#000000;stroke-width:1.86203015"
         inkscape:connector-curvature="0" />
      <path
         id="path44346"
         d="m 439.91117,370.7801 -1.86203,1.86203 0,11.17218 m 1.86203,-11.17218 -1.86203,11.17218 m 1.86203,-13.03421 1.86203,1.86203 -3.72406,11.17218"
         style="fill:none;stroke:#000000;stroke-width:1.86203015"
         inkscape:connector-curvature="0" />
      <path
         id="path44348"
         d="m 460.3935,374.50416 1.86203,1.86203 1.86203,3.72406 0,24.20639 -3.72406,1.86203 m 3.72406,-29.79248 -1.86203,-1.86203 1.86203,-1.86203 1.86203,3.72406 0,29.79248 3.72406,1.86203 m -9.31015,-33.51654 5.58609,-3.72406 1.86203,3.72406 0,29.79248 3.72406,1.86203 1.86203,0 m -13.03421,0 1.86203,0 3.72406,1.86203 1.86203,1.86203 1.86203,-1.86203 3.72406,-1.86203"
         style="fill:none;stroke:#000000;stroke-width:1.86203015"
         inkscape:connector-curvature="0" />
      <path
         id="path44350"
         d="m 492.04801,374.50416 1.86203,0 3.72406,-1.86203 1.86203,-1.86203 3.72406,1.86203 7.44812,1.86203 3.72406,0 m -16.75827,0 3.72406,-1.86203 m -9.31015,1.86203 3.72406,1.86203 3.72406,0 3.72406,-3.72406 m 7.44812,1.86203 0,13.03421 m 1.86203,-11.17218 0,9.31015 m 1.86203,-11.17218 0,13.03421 -3.72406,0 -5.58609,1.86203 -3.72406,1.86203 m 0,-1.86203 3.72406,1.86203 5.58609,1.86203 3.72406,0 0,13.03421 m -1.86203,-11.17218 0,9.31015 m -1.86203,-11.17218 0,13.03421 m -20.48233,0 3.72406,-1.86203 3.72406,0 3.72406,1.86203 1.86203,1.86203 m -5.58609,-1.86203 3.72406,1.86203 m -11.17218,-1.86203 3.72406,0 3.72406,1.86203 1.86203,1.86203 3.72406,-1.86203 7.44812,-1.86203 3.72406,0"
         style="fill:none;stroke:#000000;stroke-width:1.86203015"
         inkscape:connector-curvature="0" />
    </g>
  </g>
</svg>
